{
  "metadata": {
    "name": "diner-project",
    "lastOpened": 0,
    "created": 1594035668595
  },
  "iconSets": [
    {
      "selection": [
        {
          "order": 39,
          "id": 15,
          "name": "boyutl-gorsel",
          "prevSize": 32,
          "code": 59648,
          "tempChar": ""
        },
        {
          "order": 40,
          "id": 14,
          "name": "daha-cok-satis",
          "prevSize": 32,
          "code": 59649,
          "tempChar": ""
        },
        {
          "order": 41,
          "id": 13,
          "name": "ekonomik",
          "prevSize": 32,
          "code": 59650,
          "tempChar": ""
        },
        {
          "order": 42,
          "id": 12,
          "name": "gercek-posiyon-boyutu",
          "prevSize": 32,
          "code": 59651,
          "tempChar": ""
        },
        {
          "order": 43,
          "id": 11,
          "name": "hijyenik",
          "prevSize": 32,
          "code": 59652,
          "tempChar": ""
        },
        {
          "order": 44,
          "id": 10,
          "name": "iletisime-gecin",
          "prevSize": 32,
          "code": 59653,
          "tempChar": ""
        },
        {
          "order": 45,
          "id": 9,
          "name": "iste-bu-kadar",
          "prevSize": 32,
          "code": 59654,
          "tempChar": ""
        },
        {
          "order": 46,
          "id": 8,
          "name": "kamerayi-dogrult",
          "prevSize": 32,
          "code": 59655,
          "tempChar": ""
        },
        {
          "order": 47,
          "id": 7,
          "name": "kesfetmeye-basla",
          "prevSize": 32,
          "code": 59656,
          "tempChar": ""
        },
        {
          "order": 48,
          "id": 6,
          "name": "menuyu-incele",
          "prevSize": 32,
          "code": 59657,
          "tempChar": ""
        },
        {
          "order": 49,
          "id": 5,
          "name": "musteri-memnuniyeti",
          "prevSize": 32,
          "code": 59658,
          "tempChar": ""
        },
        {
          "order": 50,
          "id": 4,
          "name": "populer-mekanlari-bul",
          "prevSize": 32,
          "code": 59659,
          "tempChar": ""
        },
        {
          "order": 51,
          "id": 3,
          "name": "pratik",
          "prevSize": 32,
          "code": 59660,
          "tempChar": ""
        },
        {
          "order": 52,
          "id": 2,
          "name": "restoranti-sec",
          "prevSize": 32,
          "code": 59681,
          "tempChar": ""
        },
        {
          "order": 53,
          "id": 1,
          "name": "yemeklerinizi-hazirlayin",
          "prevSize": 32,
          "code": 59682,
          "tempChar": ""
        },
        {
          "order": 54,
          "id": 0,
          "name": "yeni-musteriler",
          "prevSize": 32,
          "code": 59683,
          "tempChar": ""
        }
      ],
      "id": 6,
      "metadata": {
        "name": "Untitled Set",
        "importSize": {
          "width": 150,
          "height": 150
        }
      },
      "height": 1024,
      "prevSize": 32,
      "icons": [
        {
          "id": 15,
          "paths": [
            "M511.249 853.879c251.324-0.311 454.969-204.003 455.202-455.316l0-0.023c0-40.96-32.29-75.093-84.036-101.99l-1.775 0.546c-4.164 17.27-9.056 32.022-15.005 46.22l0.737-1.984c34.679 19.046 53.248 39.39 53.248 57.344 0 51.951-155.307 124.382-408.371 124.382s-408.371-72.499-408.371-124.382c0-19.797 21.709-41.711 60.075-61.44-7.455-11.699-14.735-25.327-20.991-39.508l-0.786-1.998c-69.564 35.703-84.992 75.093-85.129 102.4v0c-0 251.511 203.735 455.438 455.173 455.748l0.029 0zM511.249 569.89c154.965 0 316.757-29.628 399.36-85.743-40.877 185.811-204.121 322.798-399.36 322.798s-358.483-136.987-398.859-320.090l-0.501-2.709c82.603 56.115 244.395 85.743 399.36 85.743z",
            "M903.031 718.575c-2.666-1.144-5.768-1.809-9.026-1.809-12.932 0-23.415 10.483-23.415 23.415 0 10.072 6.359 18.658 15.281 21.964l0.162 0.053c54.613 21.231 86.835 46.694 86.835 68.267 0 51.541-175.65 123.494-461.619 123.494s-461.619-71.953-461.619-123.494c0-21.572 32.495-47.036 86.903-68.267 8.523-3.628 14.39-11.932 14.39-21.606 0-12.932-10.483-23.415-23.415-23.415-2.86 0-5.601 0.513-8.135 1.452l0.162-0.053c-96.461 37.615-116.736 81.579-116.736 111.889 0 51.132 54.613 94.822 158.72 126.293 93.73 28.399 217.975 44.032 349.73 44.032s256-15.633 349.73-44.032c103.834-31.471 158.652-75.093 158.652-126.293 0-30.31-20.207-74.274-116.599-111.889z",
            "M273.067 398.882c20.561 12.889 45.548 20.534 72.322 20.534 1.359 0 2.713-0.020 4.062-0.059l-0.198 0.005c0.802 0.017 1.748 0.026 2.696 0.026 27.352 0 52.867-7.866 74.406-21.46l-0.576 0.339c21.033-13.449 37.187-32.906 46.216-55.938l0.273-0.791c6.786-15.889 10.731-34.376 10.731-53.785 0-0.675-0.005-1.35-0.014-2.023l0.001 0.102c0-0.122 0.001-0.265 0.001-0.409 0-20.332-4.167-39.691-11.694-57.269l0.361 0.949c-11.412-27.64-34.837-48.304-63.587-55.7l-0.651-0.142c-0.893-0.173-1.607-0.797-1.906-1.621l-0.006-0.018c-0.029-0.133-0.046-0.287-0.046-0.444 0-0.708 0.337-1.338 0.859-1.737l0.005-0.004 66.355-52.702c2.343-1.892 3.829-4.765 3.829-7.985 0-0.121-0.002-0.241-0.006-0.361l0 0.017-0.41-72.909c0-3.77-3.056-6.827-6.827-6.827v0l-240.299 1.297c-1.815 0.046-3.447 0.793-4.643 1.98l0-0c-1.181 1.164-1.913 2.782-1.913 4.571 0 0.049 0.001 0.098 0.002 0.147l-0-0.007v64.99c0 3.77 3.056 6.827 6.827 6.827v0l120.695-0.683c1.092 0 1.707 0.341 1.911 1.092 0.034 0.142 0.053 0.305 0.053 0.472 0 0.701-0.341 1.323-0.867 1.708l-0.006 0.004-84.105 64.99c-1.645 0.927-2.737 2.663-2.737 4.654 0 0.092 0.002 0.183 0.007 0.274l-0.001-0.013c0.167 1.686 0.782 3.202 1.723 4.461l-0.017-0.023 39.39 54.613c0.824 1.941 2.714 3.277 4.915 3.277 0.024 0 0.048-0 0.072-0l-0.004 0c1.663-0.172 3.155-0.787 4.391-1.723l-0.022 0.016c7.714-5.53 14.063-9.694 18.978-12.493 3.893-2.424 8.575-3.945 13.594-4.162l0.059-0.002c0.366-0.013 0.795-0.020 1.226-0.020 14.696 0 27.435 8.383 33.695 20.627l0.099 0.214c5.010 10.878 7.931 23.603 7.931 37.010 0 0.525-0.004 1.048-0.013 1.571l0.001-0.079c0.055 1.075 0.087 2.334 0.087 3.601 0 11.935-2.805 23.216-7.791 33.218l0.195-0.432c-6.886 12.402-19.905 20.656-34.853 20.656-7.438 0-14.399-2.044-20.352-5.601l0.181 0.1c-6.148-4.007-10.881-9.73-13.57-16.489l-0.083-0.237c-3.527-7.721-5.954-16.683-6.803-26.099l-0.023-0.32c0-0.004 0-0.008 0-0.012 0-3.77-3.056-6.827-6.827-6.827-0.144 0-0.287 0.004-0.429 0.013l0.019-0.001-79.258 0.887c-0.342-0.071-0.734-0.112-1.136-0.112-3.205 0-5.803 2.598-5.803 5.803 0 0.402 0.041 0.795 0.119 1.174l-0.006-0.037c1.225 17.501 5.15 33.756 11.37 48.822l-0.379-1.036c9.898 24.178 26.592 43.887 47.7 57.255l0.497 0.294z",
            "M531.319 412.399c1.219 1.177 2.879 1.904 4.709 1.911l0.001 0 140.561-0.819c0.836 0.014 1.823 0.022 2.812 0.022 26.447 0 51.578-5.637 74.257-15.775l-1.156 0.462c21.138-9.303 38.479-23.945 50.798-42.247l0.266-0.419c11.193-17.181 17.85-38.208 17.85-60.789 0-0.949-0.012-1.895-0.035-2.839l0.003 0.14-0.819-144.384c0.008-0.488 0.012-1.063 0.012-1.64 0-22.954-6.912-44.294-18.768-62.051l0.256 0.408c-12.647-18.533-30.007-32.996-50.376-41.829l-0.756-0.292c-21.126-9.19-45.736-14.537-71.594-14.537-1.711 0-3.416 0.023-5.115 0.070l0.251-0.005-140.561 0.751c-0.019-0-0.042-0-0.065-0-1.803 0-3.429 0.76-4.574 1.977l-0.003 0.003c-1.181 1.164-1.913 2.782-1.913 4.571 0 0.049 0.001 0.098 0.002 0.147l-0-0.007 2.048 372.463c-0.001 0.042-0.002 0.091-0.002 0.14 0 1.789 0.732 3.406 1.912 4.57l0.001 0.001zM621.978 106.291h56.183c0.572-0.025 1.244-0.039 1.919-0.039 13.804 0 26.211 5.981 34.771 15.493l0.038 0.042c8.953 10.525 14.398 24.275 14.398 39.297 0 0.969-0.023 1.933-0.067 2.891l0.005-0.135 0.614 113.527c0.025 0.664 0.039 1.444 0.039 2.228 0 15.222-5.346 29.195-14.262 40.146l0.092-0.116c-8.377 9.77-20.733 15.921-34.527 15.921-0.414 0-0.826-0.006-1.237-0.017l0.061 0.001h-56.798c-1.843 0-2.731-0.887-2.731-2.731l-1.229-223.573c-0.033-0.15-0.051-0.323-0.051-0.499 0-1.357 1.1-2.458 2.458-2.458 0.114 0 0.227 0.008 0.337 0.023l-0.013-0.001z"
          ],
          "attrs": [
            {
              "fill": "rgb(220, 28, 77)"
            },
            {
              "fill": "rgb(220, 28, 77)"
            },
            {
              "fill": "rgb(220, 28, 77)"
            },
            {
              "fill": "rgb(220, 28, 77)"
            }
          ],
          "isMulticolor": false,
          "isMulticolor2": false,
          "grid": 0,
          "tags": [
            "boyutl-gorsel"
          ]
        },
        {
          "id": 14,
          "paths": [
            "M923.716 261.188l-168.823-245.555-404.002 245.555h572.826z",
            "M1022.771 336.623h-927.198c1.365-156.945 125.201-159.13 126.703-159.13h90.453l135.919-73.045h-226.372c-85.743 0-220.911 63.147-222.276 232.175v0 549.888c-0 0.061-0 0.133-0 0.205 0 60.739 49.239 109.978 109.978 109.978 0 0 0-0 0-0l802.816 0c60.739 0 109.978-49.239 109.978-109.978v0-85.743h-364.407c-40.493 0-73.318-32.826-73.318-73.318v0-109.773c0-40.493 32.826-73.318 73.318-73.318v0h364.407z",
            "M660.685 672.768c0.001 30.388 24.635 55.021 55.023 55.021s55.023-24.635 55.023-55.023c0-30.388-24.635-55.023-55.023-55.023-0.144 0-0.288 0.001-0.432 0.002l0.022-0c-30.203 0.194-54.613 24.723-54.613 54.954 0 0.024 0 0.049 0 0.073l-0-0.004z"
          ],
          "attrs": [
            {
              "fill": "rgb(220, 28, 77)"
            },
            {
              "fill": "rgb(220, 28, 77)"
            },
            {
              "fill": "rgb(220, 28, 77)"
            }
          ],
          "isMulticolor": false,
          "isMulticolor2": false,
          "grid": 0,
          "tags": [
            "daha-cok-satis"
          ]
        },
        {
          "id": 13,
          "paths": [
            "M1023.113 373.146c0-0.009 0-0.021 0-0.032 0-28.316-21.257-51.666-48.683-54.965l-0.264-0.026-37.82-229.376-894.839 147.183 15.77 95.983c-32.752 6.037-57.242 34.355-57.276 68.4l-0 0.004v383.386c-0 0-0 0-0 0 0 38.409 31.098 69.554 69.488 69.632l0.007 0h860.16c31.133-0.061 57.47-20.523 66.358-48.727l0.134-0.494c16.185-9.841 26.83-27.38 26.83-47.406 0-0.134-0-0.267-0.001-0.401l0 0.021zM798.72 148.958c21.38 49.823 68.25 84.954 123.756 89.127l0.489 0.030 13.107 79.599h-233.472c-17.779-58.906-57.606-106.471-109.654-134.037l-1.211-0.585zM191.147 249.037l188.143-30.993c-26.192 26.843-45.46 60.558-54.846 98.184l-0.314 1.485h-156.194c12.799-19.48 21.176-42.924 23.178-68.163l0.033-0.513zM976.213 771.413c0 29.559-23.962 53.521-53.521 53.521v0h-831.283c-29.559 0-53.521-23.962-53.521-53.521h-0v-370.756c0-29.559 23.962-53.521 53.521-53.521v0h831.010c0.061-0 0.133-0 0.205-0 29.573 0 53.551 23.954 53.589 53.518l0 0.004z"
          ],
          "attrs": [
            {
              "fill": "rgb(220, 28, 77)"
            }
          ],
          "isMulticolor": false,
          "isMulticolor2": false,
          "grid": 0,
          "tags": [
            "ekonomik"
          ]
        },
        {
          "id": 12,
          "paths": [
            "M437.726 0.614c-12.496 0.549-22.418 10.813-22.418 23.394 0 0.392 0.010 0.781 0.029 1.168l-0.002-0.055 14.746 325.018-78.165 73.114c-4.594 4.287-7.458 10.377-7.458 17.136 0 0.312 0.006 0.622 0.018 0.931l-0.001-0.044 19.388 496.23c0.006 0.254 0.010 0.553 0.010 0.853 0 20.968-16.998 37.966-37.966 37.966-20.668 0-37.479-16.515-37.955-37.068l-0.001-0.044v-2.048l19.251-496.162c0.005-0.187 0.008-0.406 0.008-0.626 0-6.74-2.832-12.82-7.37-17.113l-77.835-73.056 14.473-325.086c0.014-0.306 0.022-0.664 0.022-1.024 0-12.982-10.524-23.506-23.506-23.506-12.622 0-22.92 9.948-23.482 22.431l-0.002 0.051-14.746 331.913c-0.014 0.355-0.022 0.772-0.022 1.19 0 8.941 3.665 17.026 9.575 22.835l0.005 0.004 0.614 0.546 75.093 70.383-19.046 485.308c0 0.341 0 0.614 0 0.956v2.526c-0 0.081-0 0.177-0 0.273 0 46.916 38.014 84.953 84.921 84.992l0.004 0c46.953-0.032 85.004-38.103 85.004-85.060 0-1.297-0.029-2.586-0.086-3.869l0.006 0.182-18.978-485.308 75.093-70.451 0.614-0.478c5.876-5.786 9.516-13.828 9.516-22.72 0-0.461-0.010-0.919-0.029-1.375l0.002 0.065-14.814-331.913c-0.551-12.532-10.845-22.483-23.462-22.483-0.368 0-0.733 0.008-1.097 0.025l0.052-0.002z",
            "M363.52 279.347c12.978-0.039 23.484-10.568 23.484-23.552 0-0-0-0-0-0l0 0v-231.697c0-12.97-10.514-23.484-23.484-23.484s-23.484 10.514-23.484 23.484v0 231.697c-0 0-0 0-0 0 0 12.983 10.506 23.513 23.48 23.552l0.004 0z",
            "M288.29 279.347c12.978-0.039 23.484-10.568 23.484-23.552 0-0-0-0-0-0l0 0v-231.697c-0.692-12.45-10.956-22.284-23.518-22.284s-22.826 9.834-23.515 22.223l-0.003 0.061v231.697c0 13.007 10.545 23.552 23.552 23.552v0z",
            "M868.557 212.992c-5.188-88.269-47.787-163.84-110.66-197.222-17.526-9.499-38.37-15.083-60.518-15.083s-42.993 5.584-61.202 15.42l0.684-0.338c-63.078 33.451-105.472 109.227-110.66 197.291-5.598 95.573 33.519 183.774 105.131 238.933l-18.842 483.26c-0.022 0.717-0.034 1.561-0.034 2.408 0 46.902 38.022 84.924 84.924 84.924s84.924-38.022 84.924-84.924c0-0.847-0.012-1.69-0.037-2.531l0.003 0.124-18.842-483.669c71.612-54.818 110.729-143.087 105.131-238.592zM726.084 420.796c-6.155 4.28-10.134 11.318-10.134 19.284 0 0.421 0.011 0.839 0.033 1.254l-0.002-0.058 19.319 496.094c0.021 0.475 0.033 1.032 0.033 1.591 0 10.264-4.074 19.576-10.693 26.408l0.010-0.010c-6.912 7.152-16.591 11.593-27.307 11.593s-20.395-4.441-27.296-11.582l-0.010-0.011c-6.608-6.852-10.68-16.189-10.68-26.477 0-0.532 0.011-1.061 0.032-1.588l-0.002 0.075 19.319-496.162c0.019-0.357 0.031-0.775 0.031-1.196 0-7.967-3.979-15.004-10.057-19.234l-0.077-0.051c-64.785-44.783-100.489-121.446-95.573-204.8 4.164-70.861 37.82-133.052 85.743-158.447 11.156-6.065 24.43-9.63 38.537-9.63s27.38 3.566 38.969 9.845l-0.433-0.214c47.787 25.395 81.92 87.586 85.743 158.515 4.983 83.354-30.72 160.017-95.505 204.8z"
          ],
          "attrs": [
            {
              "fill": "rgb(220, 28, 77)"
            },
            {
              "fill": "rgb(220, 28, 77)"
            },
            {
              "fill": "rgb(220, 28, 77)"
            },
            {
              "fill": "rgb(220, 28, 77)"
            }
          ],
          "isMulticolor": false,
          "isMulticolor2": false,
          "grid": 0,
          "tags": [
            "gercek-posiyon-boyutu"
          ]
        },
        {
          "id": 11,
          "paths": [
            "M705.536 3.004h-391.509c-39.211-0-70.997 31.787-70.997 70.997v0 878.455c0.039 39.195 31.802 70.958 70.994 70.997l391.581 0c39.166-0.078 70.89-31.826 70.929-70.994l0-0.004v-878.455c0-39.211-31.787-70.997-70.997-70.997v0zM747.725 952.457c0 23.3-18.889 42.189-42.189 42.189v0h-391.509c-23.285-0.039-42.15-18.904-42.189-42.185l-0-0.004v-878.455c0.039-23.298 18.896-42.18 42.181-42.257l0.007-0h391.578c23.309 0.039 42.189 18.943 42.189 42.257 0 0-0 0-0 0l0-0z",
            "M551.464 911.004c5.439 23.044-8.833 46.134-31.877 51.573s-46.134-8.833-51.573-31.877c-5.439-23.044 8.833-46.134 31.877-51.573s46.134 8.833 51.573 31.877z",
            "M375.467 198.315c2.487-0.037 4.499-2.024 4.574-4.499l0-0.007v-45.67l20.48 24.781c0.807 0.964 2.011 1.572 3.356 1.572 0.044 0 0.088-0.001 0.132-0.002l-0.006 0c0.046 0.002 0.1 0.003 0.154 0.003 1.316 0 2.49-0.611 3.253-1.565l0.006-0.008 20.48-24.781v45.67c0.075 2.481 2.086 4.469 4.57 4.506l0.004 0c0.017 0 0.037 0 0.057 0 1.221 0 2.319-0.525 3.081-1.362l0.003-0.003c0.84-0.786 1.364-1.902 1.365-3.14l0-0v-57.822c0-0.019 0-0.042 0-0.065 0-1.24-0.524-2.357-1.363-3.141l-0.002-0.002c-0.765-0.84-1.863-1.366-3.084-1.366-0.020 0-0.040 0-0.060 0l0.003-0c-0.777 0.012-1.504 0.213-2.141 0.558l0.024-0.012c-0.61 0.374-1.129 0.828-1.562 1.355l-0.009 0.011-24.439 29.901-24.508-29.901c-0.84-1.163-2.192-1.912-3.719-1.912-0.012 0-0.025 0-0.037 0l0.002-0c-2.481 0.075-4.469 2.086-4.506 4.57l-0 0.004v57.822c0.074 2.458 2.047 4.432 4.499 4.505l0.007 0z",
            "M455.407 198.315h38.844c0.022 0 0.047 0.001 0.072 0.001 1.16 0 2.204-0.499 2.928-1.295l0.003-0.003c0.8-0.727 1.3-1.772 1.3-2.933 0-0.049-0.001-0.098-0.003-0.146l0 0.007c0.001-0.027 0.001-0.058 0.001-0.090 0-1.198-0.497-2.279-1.297-3.049l-0.001-0.001c-0.744-0.759-1.78-1.23-2.926-1.23-0.027 0-0.055 0-0.082 0.001l0.004-0h-34.133v-18.432h29.013c2.375-0 4.301-1.926 4.301-4.301s-1.926-4.301-4.301-4.301h-29.218v-22.46h34.133c0.075 0.005 0.163 0.008 0.252 0.008 1.080 0 2.055-0.448 2.75-1.168l0.001-0.001c0.801-0.771 1.298-1.853 1.298-3.050 0-0.032-0-0.063-0.001-0.095l0 0.005c0.001-0.024 0.001-0.052 0.001-0.081 0-1.179-0.498-2.242-1.296-2.989l-0.002-0.002c-0.757-0.796-1.822-1.292-3.003-1.297l-0.001-0h-38.639c-0.002-0-0.004-0-0.007-0-1.258 0-2.393 0.523-3.201 1.364l-0.001 0.001c-0.802 0.782-1.299 1.873-1.299 3.080 0 0.045 0.001 0.090 0.002 0.135l-0-0.007v57.822c-0.001 0.027-0.001 0.058-0.001 0.090 0 1.198 0.497 2.279 1.297 3.049l0.001 0.001c0.809 0.842 1.944 1.365 3.202 1.365 0.002 0 0.005-0 0.007-0l-0 0z",
            "M567.91 131.413c-2.511 0.038-4.536 2.063-4.574 4.57l-0 0.004v46.080l-42.94-49.766c-0.765-0.597-1.74-0.957-2.799-0.957-2.502 0-4.535 2.010-4.573 4.503l-0 0.004v57.822c0.075 2.481 2.086 4.469 4.57 4.506l0.004 0c0.002 0 0.004 0 0.007 0 1.258 0 2.393-0.523 3.201-1.364l0.001-0.001c0.797-0.808 1.291-1.916 1.297-3.139l0-0.001v-46.421l42.052 48.947 0.819 0.887c0.754 0.637 1.737 1.024 2.811 1.024 0.020 0 0.039-0 0.059-0l-0.003 0c0.017 0 0.037 0 0.057 0 1.221 0 2.319-0.525 3.081-1.362l0.003-0.003c0.84-0.786 1.364-1.902 1.365-3.14l0-0v-57.617c0-0.019 0-0.042 0-0.065 0-1.24-0.524-2.357-1.363-3.141l-0.002-0.002c-0.762-0.837-1.856-1.362-3.071-1.365l-0.001-0z",
            "M644.096 184.32c2.575-4.314 4.097-9.514 4.097-15.071 0-0.102-0.001-0.203-0.002-0.305l0 0.015v-32.973c0.001-0.038 0.002-0.083 0.002-0.129 0-1.207-0.497-2.298-1.298-3.079l-0.001-0.001c-0.809-0.846-1.948-1.372-3.209-1.372s-2.399 0.526-3.207 1.371l-0.002 0.002c-0.802 0.782-1.299 1.873-1.299 3.080 0 0.045 0.001 0.090 0.002 0.135l-0-0.007v32.7c0.001 0.066 0.001 0.145 0.001 0.224 0 3.948-1.092 7.641-2.989 10.793l0.053-0.094c-1.998 3.359-4.772 6.067-8.083 7.931l-0.109 0.056c-3.12 1.847-6.877 2.939-10.889 2.939s-7.768-1.092-10.989-2.994l0.101 0.055c-3.26-1.993-5.909-4.685-7.793-7.882l-0.058-0.106c-1.803-3.085-2.868-6.792-2.868-10.748 0-0.062 0-0.123 0.001-0.185l-0 0.009v-32.7c-0.287-2.275-2.21-4.016-4.54-4.016s-4.252 1.741-4.537 3.994l-0.002 0.023v32.7c-0 0.051-0.001 0.112-0.001 0.172 0 5.73 1.653 11.073 4.508 15.58l-0.071-0.119c2.74 4.629 6.498 8.387 10.984 11.049l0.144 0.079c4.432 2.573 9.753 4.092 15.428 4.092s10.996-1.519 15.578-4.172l-0.15 0.080c4.651-2.74 8.43-6.498 11.117-10.985l0.079-0.142z",
            "M331.571 284.877h222.481v6.417h-222.481v-6.417z",
            "M623.616 283.102h64.307v6.417h-64.307v-6.417z",
            "M331.571 314.436h222.481v6.417h-222.481v-6.417z",
            "M623.616 312.661h64.307v6.417h-64.307v-6.417z",
            "M331.571 345.702h222.481v6.417h-222.481v-6.417z",
            "M623.616 343.996h64.307v6.417h-64.307v-6.417z",
            "M331.571 375.262h222.481v6.417h-222.481v-6.417z",
            "M623.616 373.555h64.307v6.417h-64.307v-6.417z",
            "M331.571 451.721h222.481v6.417h-222.481v-6.417z",
            "M623.616 450.014h64.307v6.417h-64.307v-6.417z",
            "M331.571 481.28h222.481v6.417h-222.481v-6.417z",
            "M623.616 479.573h64.307v6.417h-64.307v-6.417z",
            "M331.571 512.614h222.481v6.417h-222.481v-6.417z",
            "M623.616 510.839h64.307v6.417h-64.307v-6.417z",
            "M331.571 542.174h222.481v6.417h-222.481v-6.417z",
            "M623.616 540.399h64.307v6.417h-64.307v-6.417z",
            "M331.571 571.665h222.481v6.417h-222.481v-6.417z",
            "M623.616 569.958h64.307v6.417h-64.307v-6.417z",
            "M331.571 602.999h222.481v6.417h-222.481v-6.417z",
            "M623.616 601.225h64.307v6.417h-64.307v-6.417z",
            "M331.571 632.559h222.481v6.417h-222.481v-6.417z",
            "M623.616 630.784h64.307v6.417h-64.307v-6.417z"
          ],
          "attrs": [
            {
              "fill": "rgb(220, 28, 77)"
            },
            {
              "fill": "rgb(220, 28, 77)"
            },
            {
              "fill": "rgb(220, 28, 77)"
            },
            {
              "fill": "rgb(220, 28, 77)"
            },
            {
              "fill": "rgb(220, 28, 77)"
            },
            {
              "fill": "rgb(220, 28, 77)"
            },
            {
              "fill": "rgb(220, 28, 77)"
            },
            {
              "fill": "rgb(220, 28, 77)"
            },
            {
              "fill": "rgb(220, 28, 77)"
            },
            {
              "fill": "rgb(220, 28, 77)"
            },
            {
              "fill": "rgb(220, 28, 77)"
            },
            {
              "fill": "rgb(220, 28, 77)"
            },
            {
              "fill": "rgb(220, 28, 77)"
            },
            {
              "fill": "rgb(220, 28, 77)"
            },
            {
              "fill": "rgb(220, 28, 77)"
            },
            {
              "fill": "rgb(220, 28, 77)"
            },
            {
              "fill": "rgb(220, 28, 77)"
            },
            {
              "fill": "rgb(220, 28, 77)"
            },
            {
              "fill": "rgb(220, 28, 77)"
            },
            {
              "fill": "rgb(220, 28, 77)"
            },
            {
              "fill": "rgb(220, 28, 77)"
            },
            {
              "fill": "rgb(220, 28, 77)"
            },
            {
              "fill": "rgb(220, 28, 77)"
            },
            {
              "fill": "rgb(220, 28, 77)"
            },
            {
              "fill": "rgb(220, 28, 77)"
            },
            {
              "fill": "rgb(220, 28, 77)"
            },
            {
              "fill": "rgb(220, 28, 77)"
            },
            {
              "fill": "rgb(220, 28, 77)"
            }
          ],
          "isMulticolor": false,
          "isMulticolor2": false,
          "grid": 0,
          "tags": [
            "hijyenik"
          ]
        },
        {
          "id": 10,
          "paths": [
            "M708.881 75.435c82.33 0 149.367 81.374 149.367 181.316 0 10.971 8.894 19.866 19.866 19.866s19.866-8.894 19.866-19.866v0c0-121.856-84.855-221.047-189.099-221.047-10.971 0-19.866 8.894-19.866 19.866s8.894 19.866 19.866 19.866v0z",
            "M1022.293 360.789v0c-3.277-46.831-42.462-86.972-73.933-90.18-1.456-0.242-3.133-0.381-4.843-0.381-13.488 0-24.963 8.616-29.223 20.644l-0.067 0.217-82.739 165.137-314.027-400.384c-15.979-26.572-44.658-44.074-77.425-44.074-16.475 0-31.917 4.425-45.202 12.151l0.43-0.231c-18.641 10.78-32.816 27.519-40.079 47.569l-0.199 0.627-2.662-3.618c-16.006-26.445-44.616-43.849-77.291-43.849-49.73 0-90.044 40.314-90.044 90.044 0 14.129 3.254 27.499 9.054 39.399l-0.235-0.533c-15.395 0.494-29.68 4.816-42.067 12.038l0.424-0.228c-27.258 15.856-45.29 44.929-45.29 78.213 0 16.43 4.394 31.834 12.071 45.101l-0.232-0.434c3.974 6.795 8.495 12.665 13.662 17.895l-0.009-0.009 71.953 94.208c-46.24 4.163-82.202 42.732-82.202 89.702 0 16.452 4.412 31.874 12.118 45.146l-0.231-0.431c3.963 6.799 8.485 12.669 13.66 17.893l-0.007-0.007 156.262 204.8 124.996 157.559c52.35 60.716 129.369 98.918 215.309 98.918 0.025 0 0.051-0 0.076-0l1.293 0c79.804 0 159.403-31.13 224.461-87.791 73.295-64.66 123.109-154.44 135.915-255.754l0.208-2.021c7.646-83.627 15.77-296.073 16.179-305.084 0-0.819 0-1.229-0.068-2.253zM966.724 663.825c-11.899 93.057-56.837 173.872-122.477 231.758l-0.403 0.349c-57.754 50.244-128.137 77.961-198.315 77.961h-1.092c-0.048 0-0.106 0-0.163 0-73.712 0-139.797-32.651-184.583-84.28l-0.257-0.303-124.382-157.013-157.013-205.278c-0.582-0.721-1.162-1.367-1.775-1.98l0 0c-3.082-3.069-5.754-6.546-7.93-10.343l-0.126-0.238c-4.161-7.165-6.617-15.766-6.617-24.941 0-18.592 10.084-34.828 25.081-43.538l0.241-0.129c7.115-4.242 15.681-6.771 24.833-6.827l0.016-0c0.013-0 0.027-0 0.042-0 11.002 0 21.179 3.531 29.459 9.522l-0.147-0.101 119.467 156.399 53.453 67.311c3.628 3.818 8.742 6.193 14.412 6.193 10.971 0 19.866-8.894 19.866-19.866 0-3.663-0.992-7.095-2.721-10.041l0.051 0.093-156.058-204.8c-5.373-8.995-11.934-16.643-19.587-23.027l-0.142-0.115-106.837-139.742c-0.515-0.769-1.077-1.44-1.703-2.045l-0.003-0.003c-9.127-9.098-14.773-21.682-14.773-35.585 0-27.749 22.495-50.244 50.244-50.244 18.645 0 34.918 10.156 43.589 25.237l0.129 0.244c1.811 3.152 4.386 5.683 7.478 7.391l0.099 0.050 252.928 327.68c3.671 4.522 9.23 7.387 15.458 7.387 10.971 0 19.866-8.894 19.866-19.866 0-4.423-1.446-8.509-3.89-11.81l0.038 0.054-291.567-377.856c-0.51-0.71-1.048-1.335-1.636-1.909l-0.003-0.003c-3.082-3.069-5.754-6.546-7.93-10.343l-0.126-0.238c-4.22-7.209-6.712-15.875-6.712-25.122 0-27.818 22.551-50.369 50.369-50.369 18.571 0 34.794 10.050 43.528 25.008l0.129 0.239c0.475 0.857 0.927 1.571 1.414 2.257l-0.049-0.073 41.506 54.613 0.41 0.751c3.974 6.795 8.495 12.665 13.662 17.895l-0.009-0.009 211.627 278.050c3.668 4.8 9.395 7.865 15.838 7.865 10.979 0 19.88-8.9 19.88-19.88 0-4.536-1.519-8.718-4.077-12.063l0.035 0.048-223.778-293.82c-3.793-6.91-6.024-15.141-6.024-23.893 0-27.834 22.564-50.397 50.397-50.397 19.081 0 35.686 10.604 44.242 26.241l0.132 0.263c0.527 0.909 1.069 1.689 1.665 2.423l-0.027-0.034 267.469 341.811 66.97 84.378s0 0 0 0v0c2.936 3.552 7.064 6.027 11.765 6.811l0.113 0.016h2.867c0.16 0.004 0.348 0.007 0.537 0.007 4.638 0 8.915-1.542 12.349-4.14l-0.051 0.037 0.683-0.614c2.158-1.862 3.906-4.135 5.135-6.703l0.053-0.123 95.642-189.030c18.471 10.599 31.369 29.114 34.099 50.796l0.035 0.336c-0.683 17.34-8.67 222.345-15.838 301.261z",
            "M196.608 850.671c-82.398 0-149.367-81.306-149.367-181.316 0-10.971-8.894-19.866-19.866-19.866s-19.866 8.894-19.866 19.866v0c0 121.924 84.855 221.047 189.099 221.047 10.971 0 19.866-8.894 19.866-19.866s-8.894-19.866-19.866-19.866h0z"
          ],
          "attrs": [
            {
              "fill": "rgb(220, 28, 77)"
            },
            {
              "fill": "rgb(220, 28, 77)"
            },
            {
              "fill": "rgb(220, 28, 77)"
            }
          ],
          "isMulticolor": false,
          "isMulticolor2": false,
          "grid": 0,
          "tags": [
            "iletisime-gecin"
          ]
        },
        {
          "id": 9,
          "paths": [
            "M817.015 506.948c-9.8-9.326-22.027-16.189-35.636-19.547l-0.546-0.114c5.591-10.786 8.869-23.547 8.869-37.074 0-26.826-12.894-50.64-32.823-65.583l-0.212-0.152c-49.698-36.727-140.493-89.566-228.898-67.584l77.961-210.466c3.022-8.008 4.771-17.265 4.771-26.931 0-43.297-35.099-78.397-78.397-78.397-33.631 0-62.317 21.177-73.448 50.924l-0.177 0.541-3.686 9.762c-9.654-13.304-22.912-23.459-38.343-29.104l-0.569-0.182c-8.441-3.168-18.196-5.002-28.38-5.002-13.090 0-25.473 3.030-36.485 8.427l0.489-0.217c-19.839 9.577-34.947 26.328-42.149 46.803l-0.176 0.574-11.469 33.451c-11.577-9.332-26.464-14.979-42.671-14.979-2.258 0-4.491 0.11-6.693 0.324l0.279-0.022c-32.783 1.871-59.104 27.204-62.507 59.375l-0.025 0.29c-0.751 6.417-0.887 10.513-0.887 11.401l7.373 308.907c0.537 28.235 4.265 55.342 10.838 81.316l-0.529-2.468 42.871 175.241c4.84 18.894 7.627 40.588 7.646 62.93l0 0.012v204.8c0.605 9.575 8.519 17.112 18.193 17.112s17.588-7.537 18.19-17.059l0.003-0.053v-204.8c0-0.076 0-0.165 0-0.254 0-25.335-3.162-49.932-9.112-73.417l0.442 2.060-42.871-175.309c-5.447-21.121-8.783-45.464-9.212-70.515l-0.004-0.277-1.229-49.835 115.849-336.282c4.127-11.698 12.559-20.996 23.347-26.165l0.274-0.118c5.945-2.915 12.937-4.62 20.328-4.62 5.711 0 11.184 1.018 16.247 2.882l-0.326-0.105c11.806 4.139 21.198 12.621 26.436 23.482l0.119 0.274c2.625 5.516 4.159 11.987 4.159 18.816 0 5.651-1.050 11.056-2.965 16.032l0.103-0.305-100.762 267.537c-0.739 1.906-1.167 4.111-1.167 6.417 0 10.070 8.163 18.233 18.233 18.233 7.764 0 14.395-4.853 17.024-11.691l0.042-0.125 100.42-267.537 27.307-73.182c3.951-10.44 11.732-18.665 21.587-23.106l0.258-0.104c5.248-2.509 11.406-3.975 17.907-3.975 5.39 0 10.545 1.008 15.286 2.845l-0.289-0.098c15.786 5.929 26.816 20.896 26.816 38.44 0 5.070-0.921 9.926-2.606 14.407l0.093-0.282-90.249 244.122c-0.803 2.071-1.269 4.468-1.269 6.973 0 5.916 2.595 11.226 6.708 14.853l0.022 0.019c3.534 3.17 8.229 5.108 13.377 5.108 3.314 0 6.44-0.803 9.195-2.225l-0.112 0.053c80.896-40.55 176.196 14.746 225.826 51.337 11.137 8.394 18.261 21.596 18.261 36.463 0 9.038-2.633 17.462-7.175 24.544l0.109-0.182c-8.653 13.173-23.36 21.751-40.071 21.751-8.194 0-15.907-2.062-22.647-5.697l0.254 0.125-92.57-49.835c-5.154-2.834-11.295-4.501-17.825-4.501-12.772 0-24.054 6.377-30.837 16.12l-0.081 0.123-13.653 20.002c-15.486 22.172-24.745 49.691-24.745 79.373 0 18.104 3.445 35.404 9.714 51.28l-0.329-0.946c16.201 42.292 51.723 73.919 95.467 84.395l0.926 0.187 6.281 1.365c2.234 0.477 4.801 0.75 7.432 0.75 11.704 0 22.146-5.405 28.967-13.854l0.055-0.071 77.551-138.718c7.273-8.352 17.681-13.812 29.371-14.535l0.12-0.006c0.871-0.062 1.887-0.098 2.911-0.098 11.354 0 21.687 4.372 29.407 11.524l-0.028-0.026c7.972 7.491 12.937 18.103 12.937 29.874 0 7.303-1.911 14.16-5.261 20.097l0.106-0.205c-9.284 16.316-18.432 36.454-28.058 57.822-15.565 34.133-33.246 73.045-51.541 94.208-19.934 23.006-45.739 43.008-83.763 64.785-81.101 46.626-87.040 197.359-87.313 203.639-0.007 0.187-0.011 0.406-0.011 0.627 0 9.868 7.813 17.911 17.59 18.282l0.034 0.001h0.614c0.023 0 0.051 0 0.079 0 9.813 0 17.808-7.784 18.148-17.514l0.001-0.031c1.297-38.025 16.247-143.36 68.949-173.397 41.711-23.962 70.451-46.285 93.116-72.499s39.799-64.785 57.207-103.083c9.284-20.48 18.091-39.936 26.556-54.613 6.311-10.95 10.035-24.081 10.035-38.082 0-22.157-9.325-42.136-24.264-56.227l-0.038-0.036zM225.28 327.202l-3.686-153.668c0-0.341 0-3.14 0.614-7.373 1.747-15.029 14.098-26.673 29.293-27.305l0.062-0.002c1.121-0.147 2.417-0.231 3.733-0.231 12.821 0 23.783 7.96 28.213 19.208l0.071 0.206zM623.479 652.493h-0.41l-4.915-1.024c-32.824-7.879-58.913-31.154-70.562-61.574l-0.23-0.685c-4.356-10.99-6.881-23.722-6.881-37.044 0-21.883 6.814-42.174 18.436-58.867l-0.222 0.338 15.223-20.48 92.57 49.766c7.039 3.871 15.206 6.857 23.845 8.517l0.526 0.084z"
          ],
          "attrs": [
            {
              "fill": "rgb(220, 28, 77)"
            }
          ],
          "isMulticolor": false,
          "isMulticolor2": false,
          "grid": 0,
          "tags": [
            "iste-bu-kadar"
          ]
        },
        {
          "id": 8,
          "paths": [
            "M856.132 351.915c-8.65-18.719-27.264-31.474-48.857-31.474-2.342 0-4.649 0.15-6.911 0.441l0.268-0.028v-234.837c-0.039-46.232-37.526-83.695-83.763-83.695-0.024 0-0.048 0-0.072 0l-282.142-0c-46.208 0.039-83.656 37.487-83.695 83.691l-0 0.004v213.606c-11.196-12.766-24.235-21.026-38.434-18.91-40.277 5.734-42.667 37.615-45.193 71.407-1.531 36.132-8.71 70.129-20.677 101.774l0.744-2.241c-12.109 32.942-27.596 61.454-46.554 87.257l0.679-0.968c-18.453 23.743-31.88 52.322-38.148 83.492l-0.217 1.296c-3.101 14.033-5.663 31.13-7.134 48.537l-0.102 1.502c-2.731 27.307-5.052 50.244-20.48 83.217-12.71 26.371-26.187 48.88-41.418 70.043l0.936-1.367c-1.793 2.375-2.871 5.376-2.871 8.629 0 4.893 2.44 9.216 6.169 11.82l0.047 0.031c2.315 1.706 5.224 2.731 8.372 2.731 0.009 0 0.017-0 0.026-0l-0.001 0c0.007 0 0.015 0 0.023 0 4.843 0 9.131-2.379 11.758-6.033l0.029-0.043c15.277-21.091 29.621-45.058 41.827-70.254l1.25-2.86c13.063-27.139 21.414-58.817 23.118-92.249l0.024-0.594c1.508-17.653 3.923-33.578 7.283-49.152l-0.457 2.526c5.528-28.618 17.356-53.823 34.010-75.063l-0.287 0.379c19.568-26.629 36.179-57.189 48.371-89.9l0.849-2.601c12.155-31.833 19.968-68.641 21.682-107.034l0.027-0.759c2.867-38.025 4.983-42.598 20.48-44.851 4.574-0.614 21.641 16.589 34.133 46.012v420.932c-0 0.020-0 0.044-0 0.068 0 46.261 37.502 83.763 83.763 83.763 0.024 0 0.048-0 0.072-0l119.873 0c-1.161 2.185-2.389 4.233-3.55 6.144l-90.658 61.44c-17.693 5.214-32.547 10.878-46.856 17.521l2.073-0.864c-31.087 14.339-57.88 31.405-82.027 51.537l0.585-0.474c-3.247 2.674-5.302 6.695-5.302 11.196 0 7.993 6.48 14.473 14.473 14.473 0.040 0 0.080-0 0.12-0l-0.006 0c0.018 0 0.040 0 0.061 0 3.498 0 6.701-1.265 9.175-3.362l-0.021 0.017c21.731-18.083 46.433-33.801 73.010-46.166l2.083-0.87c11.7-5.487 25.903-10.852 40.545-15.195l2.258-0.575c13.845-3.909 25.742-8.56 37.057-14.203l-1.217 0.549 5.53-2.731c22.938-11.264 48.811-24.098 75.503-78.234h129.707c46.208-0.039 83.656-37.487 83.695-83.691l0-0.004v-47.787l4.779-2.116c17.794-8.259 29.911-25.975 29.911-46.52 0-7.554-1.638-14.726-4.579-21.179l0.131 0.32-2.048-4.642c-4.476-9.513-11.521-17.195-20.244-22.331l-0.236-0.129c16.204-9.302 26.943-26.505 26.943-46.217 0-18.958-9.933-35.597-24.879-44.994l-0.221-0.129c15.192-9.633 25.13-26.36 25.13-45.408 0-7.907-1.712-15.414-4.787-22.171l0.137 0.336c-6.026-12.895-16.628-22.81-29.669-27.797l-0.369-0.124v-10.103l28.74-13.039c18.733-8.563 31.516-27.138 31.516-48.7 0-7.982-1.752-15.555-4.892-22.356l0.137 0.331zM771.413 776.329c0 30.162-24.451 54.613-54.613 54.613v0h-282.146c-30.162 0-54.613-24.451-54.613-54.613v0-40.96c0.223-0.968 0.37-2.094 0.409-3.247l0.001-0.029v-213.879c2.389-13.653 5.052-24.917 7.441-35.089 7.851-34.133 13.653-58.709 0-109.978-2.546-9.38-5.18-17.080-8.227-24.567l0.513 1.424v-263.987c0-30.162 24.451-54.613 54.613-54.613v0h282.010c30.162 0 54.613 24.451 54.613 54.613v0 245.419l-26.761 12.083c-18.69 8.6-31.432 27.165-31.432 48.706 0 22.737 14.196 42.158 34.207 49.883l0.365 0.124c4.278 1.684 9.235 2.871 14.402 3.33l0.207 0.015-2.662 1.092-40.482 18.295c-18.723 8.587-31.493 27.169-31.493 48.734 0 7.968 1.744 15.529 4.87 22.323l-0.137-0.332c4.303 9.45 10.997 17.174 19.322 22.609l0.202 0.124-9.626 4.301c-18.704 8.595-31.458 27.167-31.458 48.718 0 24.513 16.5 45.172 39 51.476l0.376 0.090c-1.035 1.877-2.070 4.127-2.948 6.454l-0.124 0.373c-2.090 5.347-3.301 11.538-3.301 18.012 0 7.599 1.669 14.809 4.661 21.282l-0.13-0.315 2.048 4.574c8.224 17.833 25.948 29.988 46.511 29.988 5.126 0 10.076-0.755 14.744-2.161l-0.362 0.094zM804.727 687.582c-2.058 5.518-6.146 9.873-11.334 12.233l-0.135 0.055-13.653 6.007-13.653 6.281c-2.656 1.224-5.764 1.937-9.038 1.937-8.845 0-16.474-5.208-19.987-12.725l-0.057-0.135-2.048-4.642c-1.214-2.643-1.922-5.733-1.922-8.989 0-8.854 5.234-16.485 12.777-19.968l0.136-0.056 27.307-12.356c2.571-1.128 5.568-1.785 8.719-1.785 0.897 0 1.781 0.053 2.65 0.157l-0.105-0.010c7.926 0.777 14.551 5.674 17.761 12.495l0.057 0.134 2.048 4.574c1.312 2.714 2.079 5.903 2.079 9.27 0 2.752-0.512 5.385-1.447 7.808l0.050-0.148zM804.727 594.125c-2.332 6.111-6.869 10.937-12.615 13.591l-0.151 0.063-11.878 5.325-45.466 20.48c-3.005 1.412-6.526 2.237-10.24 2.237-13.564 0-24.56-10.996-24.56-24.56 0-9.85 5.799-18.346 14.169-22.26l0.151-0.063 57.344-25.873c2.844-1.324 6.175-2.097 9.686-2.097 1.038 0 2.060 0.067 3.062 0.198l-0.118-0.013c12.436 1.17 22.092 11.559 22.092 24.202 0 3.129-0.591 6.12-1.669 8.868l0.057-0.165zM804.181 484.898c1.436 3.028 2.274 6.578 2.274 10.325 0 9.947-5.909 18.513-14.408 22.38l-0.154 0.063-11.878 5.393-28.672 12.902c-3.005 1.414-6.526 2.24-10.24 2.24-13.547 0-24.529-10.982-24.529-24.529 0-9.833 5.786-18.314 14.138-22.226l0.15-0.063 40.482-18.295c2.902-1.356 6.3-2.147 9.883-2.147 0.992 0 1.97 0.061 2.93 0.178l-0.115-0.012c8.976 0.827 16.494 6.344 20.143 14.049l0.064 0.15zM830.259 382.293c-2.314 6.142-6.888 10.982-12.682 13.592l-0.152 0.061-37.205 16.862-3.277 1.434c-2.961 1.374-6.426 2.175-10.079 2.175-9.858 0-18.353-5.837-22.217-14.243l-0.063-0.152c-1.374-2.961-2.175-6.426-2.175-10.079 0-9.858 5.837-18.353 14.243-22.217l0.152-0.063 40.277-18.022c3.007-1.423 6.532-2.254 10.251-2.254 13.498 0 24.439 10.942 24.439 24.439 0 3.040-0.555 5.95-1.569 8.634l0.056-0.168z",
            "M647.646 69.018h26.487c16.928 0 30.652 13.723 30.652 30.652v75.708c0 16.928-13.723 30.652-30.652 30.652h-26.487c-16.928 0-30.652-13.723-30.652-30.652v-75.708c0-16.928 13.723-30.652 30.652-30.652z"
          ],
          "attrs": [
            {
              "fill": "rgb(220, 28, 77)"
            },
            {
              "fill": "rgb(220, 28, 77)"
            }
          ],
          "isMulticolor": false,
          "isMulticolor2": false,
          "grid": 0,
          "tags": [
            "kamerayi-dogrult"
          ]
        },
        {
          "id": 7,
          "paths": [
            "M1001.745 527.223c-6.249-5.531-14.515-8.908-23.57-8.908-0.546 0-1.089 0.012-1.629 0.037l0.077-0.003h-35.84v-2.731c0-100.215-33.178-187.938-95.573-253.679-51.951-54.613-124.245-92.979-204.8-109.705-5.691-46.74-45.131-82.595-92.945-82.595s-87.254 35.854-92.9 82.144l-0.045 0.451c-80.759 16.725-153.054 55.364-204.8 109.705-63.488 65.741-96.666 153.463-96.666 253.679v2.731h-35.84c-0.466-0.022-1.012-0.034-1.561-0.034-9.031 0-17.272 3.379-23.529 8.941l0.036-0.032c-6.31 5.865-10.245 14.21-10.245 23.475 0 0.195 0.002 0.39 0.005 0.584l-0-0.029c0 37.956 49.289 80.213 82.739 80.213h113.050l-76.254 35.226c-3.717-2.020-8.14-3.207-12.84-3.207-1.516 0-3.004 0.124-4.453 0.361l0.158-0.021-133.12 21.777c-12.962 2.288-22.683 13.465-22.683 26.912 0 0.355 0.007 0.708 0.020 1.059l-0.002-0.051v252.177c0.023 7.776 3.5 14.735 8.976 19.427l0.035 0.029c4.818 4.203 11.149 6.781 18.081 6.827l0.010 0c1.505-0.013 2.969-0.137 4.4-0.363l-0.167 0.022 173.534-27.307c13.049-2.212 22.862-13.431 22.862-26.942 0-1.502-0.121-2.976-0.355-4.413l0.021 0.157-4.301-26.419 32.563-16.452 0.956-0.546c18.569-10.65 23.62-11.605 60.757-11.878l195.038-4.028c19.388-1.638 35.772-3.823 54.613-15.838l92.979-50.176c13.303-6.629 24.766-14.384 35.065-23.434l-0.18 0.155 54.613-45.67c43.213-34.884 40.96-71.202 26.146-91.75-4.848-6.461-10.933-11.718-17.937-15.49l-0.291-0.143h143.36c33.451 0 82.807-42.257 82.807-80.213 0.001-0.102 0.002-0.222 0.002-0.342 0-9.356-3.988-17.781-10.357-23.668l-0.022-0.020zM494.319 162.202l17.135 2.458-17.135-1.911zM476.979 189.508l15.838-2.662 20.48-1.843c10.131-0.88 21.92-1.382 33.826-1.382s23.695 0.502 35.347 1.486l-1.521-0.103 20.48 1.638 15.906 2.867c132.096 22.323 273.067 114.347 282.419 305.562h-705.195c9.353-191.147 150.255-283.443 282.419-305.493zM69.632 948.497v-224.393l107.861-17.613 35.908 219.341zM752.299 707.174l-55.979 46.285c-7.676 6.882-16.382 12.862-25.802 17.639l-0.685 0.315-94.549 50.995-1.57 0.956c-9.899 6.827-17.954 8.26-35.499 9.694l-192.717 3.755c-40.96 0-53.521 1.911-80.145 17.067l-3.891 1.98-26.146-159.539 59.255-27.307c19.377-9.764 42.081-15.962 66.107-17.12l0.385-0.015 167.117-0.478c10.923 0 16.247 4.983 16.589 9.489 0.478 5.666-6.417 10.65-17.34 12.493l-102.4 18.569c-15.572 0.24-28.202 12.512-29.010 27.917l-0.003 0.073c0.15 15.57 12.807 28.134 28.398 28.134 0.24 0 0.48-0.003 0.719-0.009l-0.035 0.001 102.878 6.827c4.671 0.613 10.073 0.962 15.557 0.962 14.67 0 28.755-2.503 41.852-7.104l-0.884 0.271 62.396-24.986c9.602-2.936 17.902-7.618 24.932-13.724l-0.083 0.071 53.794-36.181c21.982-14.404 40.073-10.308 45.397-3.004s-2.048 22.323-18.978 35.977zM703.147 640.068l-55.296 37.137-2.526 1.98c-3.066 2.675-6.741 4.738-10.783 5.954l-0.208 0.054-63.556 25.327c-8.18 2.81-17.606 4.432-27.41 4.432-4.008 0-7.952-0.271-11.815-0.796l0.45 0.050 2.458-0.478c37.683-6.349 52.907-33.519 51.132-56.115-0.896-10.010-4.714-18.988-10.584-26.237l0.071 0.091h143.36c-5.927 2.781-10.94 5.648-15.699 8.861l0.408-0.259zM929.041 590.507h-764.177c-13.653 0-31.949-18.5-38.912-31.198h842.001c-7.031 12.698-25.327 31.198-38.98 31.198z"
          ],
          "attrs": [
            {
              "fill": "rgb(220, 28, 77)"
            }
          ],
          "isMulticolor": false,
          "isMulticolor2": false,
          "grid": 0,
          "tags": [
            "kesfetmeye-basla"
          ]
        },
        {
          "id": 6,
          "paths": [
            "M731.341 400.589c4.506 3.14 13.653 6.212 5.53-2.731l-2.253-21.982c10.513-11.059 10.923-17.408 0.41-30.72-1.092-1.161-3.004-1.161-2.662 0.956 0.295 1.201 0.464 2.58 0.464 3.999 0 5.118-2.2 9.723-5.706 12.919l-0.014 0.012c-6.827 6.007-11.401 9.284-9.216 19.388 2.214 7.65 6.993 13.959 13.325 18.084l0.123 0.075z",
            "M749.568 435.746l-1.502 2.799c4.642 0 9.353 0 14.199 0 10.445 0 20.48-0.546 30.31-1.502 0.065-0.726 0.102-1.57 0.102-2.423s-0.037-1.698-0.11-2.532l0.008 0.108c-0.546-8.806-3.618-7.851 0.478-16.998 3.565-7.053 7.445-13.116 11.856-18.742l-0.183 0.242c3.277-4.506 6.827-8.875 10.103-13.653 2.528-3.116 4.982-6.592 7.202-10.228l0.239-0.422c3.004-5.188 15.77-28.399 6.827-33.382-3.823-2.253-8.67 1.502-11.332 3.959-5.293 5.452-9.838 11.674-13.441 18.471l-0.212 0.438c-1.77 3.158-3.603 6.999-5.206 10.959l-0.256 0.715c-2.185 5.188-4.301 10.377-6.827 15.497-3.071 7.446-6.503 13.823-10.495 19.793l0.255-0.406c-5.803 8.192-6.417 4.915-14.336 8.806-7.561 4.407-13.594 10.702-17.562 18.252l-0.119 0.249z",
            "M75.093 400.589c4.506 3.14 13.653 6.212 5.53-2.731l-2.253-22.050c10.513-10.991 10.923-17.34 0.41-30.652-1.092-1.161-3.004-1.161-2.662 0.956 0.297 1.2 0.467 2.578 0.467 3.996 0 5.133-2.23 9.745-5.775 12.92l-0.016 0.014c-6.69 6.007-11.469 9.284-9.353 19.251 2.211 7.742 7.075 14.115 13.525 18.219l0.128 0.076z",
            "M538.761 111.479v-16.384c27.307-13.653 49.084-16.93 80.145-18.842 8.875-0.546 18.364-1.161 27.307-1.911 4.773-0.401 8.496-4.374 8.496-9.216 0-5.107-4.14-9.247-9.247-9.247-0.264 0-0.526 0.011-0.785 0.033l0.034-0.002c-18.091 0-71.475-1.98-116.053 15.223v45.466h4.574c0.102 0.007 0.221 0.011 0.342 0.011 2.845 0 5.156-2.29 5.188-5.128l0-0.003z",
            "M1008.026 921.6l-234.223-234.223c-5.105-5.121-12.167-8.29-19.968-8.29s-14.863 3.169-19.967 8.289l-0.001 0.001-75.639-75.435c23.88-30.491 41.815-66.855 51.356-106.49l0.39-1.918c2.839 1.862 6.171 3.749 9.624 5.426l0.548 0.24c11.742 5.598 63.761 5.598 75.503 0 27.599-13.387 47.013-39.836 50.28-71.090l0.033-0.385c0.121-0.733 0.19-1.578 0.19-2.439 0-8.030-6.002-14.659-13.765-15.643l-0.078-0.008c-9.283-2.502-20.284-4.434-31.558-5.41l-0.732-0.051c-1.622 2.5-2.814 5.438-3.391 8.591l-0.022 0.147c20.48 2.116 33.655 5.734 33.655 9.899 0 6.485-32.563 11.742-72.704 11.742-0.604 0.004-1.319 0.006-2.033 0.006-13.519 0-26.869-0.721-40.014-2.127l1.633 0.142c0-6.485 0-12.971 0-19.456 10.513-1.161 23.006-1.911 36.523-2.048 3.479-3.567 7.568-6.521 12.1-8.696l0.256-0.111h-8.26c-15.019 0-29.082 0.683-41.438 1.843-10.048-114.564-87.021-208.833-191.2-244.082l-1.994-0.586c1.511-3.115 2.433-6.764 2.525-10.618l0.001-0.032v-86.153h-189.645c-1.847 0-3.345 1.498-3.345 3.345h0c-0 0-0 0-0 0.001 0 1.81 1.467 3.277 3.277 3.277 0.024 0 0.048-0 0.072-0.001l-0.004 0h0.341v79.531c0.029 4.537 1.214 8.79 3.276 12.488l-0.068-0.132c-79.187 28.724-140.748 89.414-170.014 166.059l-0.652 1.945c-2.664 1.011-4.939 2.496-6.828 4.37l0.001-0.001c-5.425 5.449-10.080 11.671-13.783 18.485l-0.211 0.425c-1.77 3.158-3.603 6.999-5.206 10.959l-0.256 0.715c-2.185 5.188-4.301 10.377-6.827 15.497-3.071 7.446-6.503 13.823-10.495 19.793l0.255-0.406c-5.803 8.192-6.417 4.915-14.336 8.806-7.61 4.232-13.722 10.344-17.836 17.723l-0.118 0.231-1.502 2.799c4.642 0 9.353 0 14.199 0 10.445 0 20.48-0.546 30.31-1.502 0.065-0.726 0.102-1.57 0.102-2.423s-0.037-1.698-0.11-2.532l0.008 0.108c-0.546-8.806-3.618-7.851 0.478-16.998 3.565-7.053 7.445-13.116 11.856-18.742l-0.183 0.242c2.253-3.072 4.506-6.007 6.827-9.011-1.638 9.011-2.799 18.091-3.55 27.307l-7.851-0.887c-1.622 2.5-2.814 5.438-3.391 8.591l-0.022 0.147c3.823 0.41 7.305 0.887 10.581 1.365 0 5.734-0.341 11.401 0 17.135-13.938 2.007-30.032 3.153-46.395 3.153-1.042 0-2.082-0.005-3.122-0.014l0.159 0.001c-40.209 0.068-72.977-5.188-72.977-11.674s30.242-11.332 68.267-11.742c3.461-3.562 7.526-6.514 12.034-8.696l0.254-0.111h-7.851c-2.202-0.057-4.795-0.089-7.395-0.089-23.876 0-47.116 2.719-69.429 7.864l2.072-0.402c-7.523 1.289-13.176 7.762-13.176 15.555 0 0.895 0.075 1.774 0.218 2.628l-0.013-0.092c3.148 31.604 22.459 58.067 49.446 71.244l0.525 0.231c11.742 5.598 63.761 5.598 75.435 0 6.841-3.318 12.737-7.117 18.112-11.526l-0.158 0.126c21.177 96.617 89.425 173.58 178.944 206.623l1.963 0.634c-4.301 0.478-2.321 15.633 4.779 15.633l15.155 1.161v63.215c0.039 14.764 11.997 26.722 26.757 26.761l0.004 0h129.092c14.779 0 26.761-11.981 26.761-26.761l-0-0v-63.078l15.155-1.229c7.236 0 9.216-15.701 4.642-15.701l-19.797 4.164v-3.959h0.41c1.847-0 3.345-1.498 3.345-3.345v0c-0.002-0.761-0.286-1.455-0.754-1.983l0.003 0.003c24.477-10.351 45.593-22.899 64.717-37.873l-0.614 0.463 75.639 75.639c-5.133 5.138-8.307 12.234-8.307 20.070s3.174 14.932 8.307 20.071l-0-0 234.155 234.155c5.138 5.133 12.234 8.307 20.070 8.307s14.932-3.174 20.071-8.307l50.585-50.517c5.141-5.16 8.319-12.278 8.319-20.139 0-7.894-3.206-15.040-8.387-20.206l-0.001-0.001zM439.706 656.93v-9.284h19.866v9.353c-6.622-0.341-13.244-0.341-19.866-0.068zM597.47 602.317c-27.672 27.723-62.368 48.426-101.191 59.213l-1.619 0.384c-6.55-1.689-14.578-3.154-22.767-4.085l-0.853-0.079v-12.834c-0.039-4.759-3.905-8.602-8.67-8.602-0 0-0 0-0 0l-25.463-0c-0-0-0-0-0-0-4.764 0-8.631 3.843-8.67 8.598l-0 0.004v12.834c-13.997 1.262-26.888 4.016-39.155 8.131l1.199-0.349c-107.575-21.223-187.583-114.8-187.583-227.064 0-127.699 103.52-231.219 231.219-231.219s231.219 103.52 231.219 231.219c0 63.855-25.885 121.664-67.734 163.508l-0 0z",
            "M380.45 389.12c8.397 5.734 24.986 11.537 10.24-5.12l-4.233-40.96c19.593-20.48 20.48-32.29 0.819-57.071-1.98-2.116-5.53-2.116-4.915 1.843 0.527 2.198 0.829 4.721 0.829 7.315 0 9.556-4.099 18.154-10.634 24.133l-0.025 0.022c-12.151 11.196-21.163 17.271-17.067 35.908 4.068 14.29 12.957 26.084 24.758 33.789l0.228 0.139z",
            "M414.242 454.11c-0.956 1.707-1.911 3.482-2.731 5.257 8.602 0 17.408 0.41 26.351 0 19.456 0 38.298-1.092 56.32-2.731 0.081-1.367 0.128-2.965 0.128-4.574s-0.046-3.207-0.138-4.793l0.010 0.219c-1.024-16.316-6.827-14.473 0.887-31.403 6.592-13.009 13.785-24.194 21.967-34.563l-0.327 0.43c6.144-8.329 12.493-16.521 18.773-24.713 4.547-5.73 9.051-12.168 13.164-18.871l0.489-0.858c5.53-9.694 29.15-52.77 13.175-62.054-6.827-4.096-16.111 2.799-21.094 7.441-10.053 10.106-18.7 21.625-25.612 34.23l-0.397 0.791c-3.261 5.888-6.632 13.058-9.569 20.447l-0.466 1.33c-4.096 9.626-7.987 19.251-12.22 28.809-5.67 13.793-12.009 25.604-19.384 36.665l0.475-0.757c-10.854 15.292-11.947 9.148-26.692 16.452-14.051 7.835-25.328 19.155-32.891 32.817l-0.218 0.429z",
            "M568.252 424.277c-17.291-4.757-37.711-8.382-58.66-10.153l-1.279-0.087c-2.883 4.609-5.084 9.982-6.292 15.72l-0.057 0.323c37.547 3.891 62.532 10.65 62.532 18.432 0 12.015-60.484 21.777-135.031 21.777s-135.031-9.762-135.031-21.777 56.252-21.163 127.181-21.777c6.455-6.663 14.045-12.179 22.465-16.247l0.472-0.206c-4.983 0-9.967 0-15.087 0-58.436 0-109.773 5.53-138.854 13.653-17.681 5.052-26.351 15.428-24.644 33.519 5.99 58.88 42.061 108.141 92.406 132.621l0.983 0.431c21.845 10.24 118.511 10.24 140.151 0 51.277-24.826 87.348-73.949 93.397-131.998l0.060-0.713c1.638-18.091-6.963-28.467-24.713-33.519z"
          ],
          "attrs": [
            {
              "fill": "rgb(220, 28, 77)"
            },
            {
              "fill": "rgb(220, 28, 77)"
            },
            {
              "fill": "rgb(220, 28, 77)"
            },
            {
              "fill": "rgb(220, 28, 77)"
            },
            {
              "fill": "rgb(220, 28, 77)"
            },
            {
              "fill": "rgb(220, 28, 77)"
            },
            {
              "fill": "rgb(220, 28, 77)"
            },
            {
              "fill": "rgb(220, 28, 77)"
            }
          ],
          "isMulticolor": false,
          "isMulticolor2": false,
          "grid": 0,
          "tags": [
            "menuyu-incele"
          ]
        },
        {
          "id": 5,
          "paths": [
            "M728.883 873.813c-21.914-9.421-41.847-17.476-59.597-24.713-27.752-10.298-50.35-20.368-72.234-31.628l3.695 1.727c-0.534-7.812-0.838-16.931-0.838-26.122 0-11.518 0.478-22.924 1.414-34.201l-0.099 1.476c17.886-17.545 52.429-68.949 53.521-203.162 0-34.543-1.502-74.615-25.6-113.186-33.66-55.707-93.89-92.378-162.685-92.378-0.79 0-1.579 0.005-2.367 0.014l0.12-0.001h-1.365c-0.445-0.004-0.971-0.006-1.498-0.006-68.669 0-128.802 36.55-162.005 91.256l-0.474 0.841c-24.166 38.502-25.805 78.575-25.805 113.118 1.092 134.281 35.635 185.617 53.521 203.23 0.838 9.788 1.316 21.182 1.316 32.686 0 9.18-0.304 18.289-0.903 27.317l0.065-1.226c-18.307 9.698-40.986 19.923-64.303 28.86l-4.51 1.519c-17.749 7.236-37.683 15.292-59.597 24.713-77.278 33.109-90.726 79.804-93.798 125.406-0.028 0.402-0.043 0.871-0.043 1.343 0 11.048 8.576 20.093 19.434 20.84l0.065 0.004h1.365c10.902-0.197 19.752-8.715 20.477-19.46l0.003-0.064c2.253-34.133 9.011-64.239 68.608-89.839 21.641-9.216 41.301-17.203 58.846-24.303 37.001-15.019 63.761-25.805 81.51-37.547 8.533-5.666 19.115-12.698 12.083-102.4-0.262-6.853-4.055-12.765-9.602-15.993l-0.092-0.049c-0.41 0-41.916-30.72-43.076-175.582 0-29.969 1.092-61.44 19.251-90.658 26.029-43.616 72.974-72.373 126.636-72.373 0.624 0 1.246 0.004 1.868 0.012l-0.095-0.001h2.116c0.708-0.012 1.543-0.019 2.379-0.019 53.794 0 100.85 28.846 126.545 71.913l0.373 0.674c18.159 29.013 19.456 60.689 19.251 90.658-1.161 144.384-42.394 175.104-42.325 175.104v0c-5.999 3.307-10.119 9.379-10.646 16.453l-0.004 0.068c-6.827 89.566 3.55 96.597 12.083 102.4 17.749 11.742 44.51 22.528 81.51 37.547 17.545 6.827 37.205 15.087 58.846 24.303 64.717 27.785 66.901 62.054 68.745 92.297 0.695 10.824 9.565 19.361 20.464 19.524l0.016 0h1.297c10.947-0.681 19.567-9.725 19.567-20.784 0-0.47-0.016-0.936-0.046-1.398l0.003 0.063c-2.116-43.759-11.878-93.252-93.389-128.273zM458.82 392.738v0z",
            "M200.158 133.325l-24.508-49.63-24.508 49.63-54.75 7.987 39.663 38.639-9.421 54.545 49.015-25.805 49.015 25.805-9.353-54.545 39.595-38.639-54.75-7.987z",
            "M369.050 133.325l-24.508-49.63-24.508 49.63-54.75 7.987 39.663 38.639-9.353 54.545 48.947-25.805 49.015 25.805-9.353-54.545 39.595-38.639-54.75-7.987z",
            "M538.010 133.325l-24.508-49.63-24.508 49.63-54.75 7.987 39.663 38.639-9.421 54.545 49.015-25.805 49.015 25.805-9.353-54.545 39.595-38.639-54.75-7.987z",
            "M706.628 133.325l-24.508-49.63-24.508 49.63-54.75 7.987 39.663 38.639-9.353 54.545 48.947-25.805 49.015 25.805-9.353-54.545 39.595-38.639-54.75-7.987z",
            "M851.081 83.695l-24.508 49.63-54.75 7.987 39.663 38.639-9.353 54.545 48.947-25.805 49.015 25.805-9.353-54.545 39.595-38.639-54.75-7.987-24.508-49.63z",
            "M911.565 0h-806.093c-57.769 0.039-104.585 46.879-104.585 104.653 0 0.024 0 0.048 0 0.072l-0-0.004v122.47c0.039 57.759 46.831 104.575 104.577 104.653l0.007 0h623.753l-5.12 314.027 197.018-314.027c53.517-5.119 95.044-49.824 95.095-104.238l0-0.005v-122.88c0-57.812-46.846-104.682-104.649-104.721l-0.004-0zM983.040 227.191c-0.039 39.322-31.885 71.193-71.195 71.27l-0.008 0h-9.216l-143.155 227.738 3.755-227.738h-657.749c-39.375 0-71.3-31.901-71.339-71.267l-0-0.004v-122.47c0.039-39.332 31.933-71.202 71.27-71.202 0.024 0 0.048 0 0.072 0l806.089-0c0.061-0 0.133-0 0.205-0 39.338 0 71.232 31.87 71.27 71.199l0 0.004z"
          ],
          "attrs": [
            {
              "fill": "rgb(220, 28, 77)"
            },
            {
              "fill": "rgb(220, 28, 77)"
            },
            {
              "fill": "rgb(220, 28, 77)"
            },
            {
              "fill": "rgb(220, 28, 77)"
            },
            {
              "fill": "rgb(220, 28, 77)"
            },
            {
              "fill": "rgb(220, 28, 77)"
            },
            {
              "fill": "rgb(220, 28, 77)"
            }
          ],
          "isMulticolor": false,
          "isMulticolor2": false,
          "grid": 0,
          "tags": [
            "musteri-memnuniyeti"
          ]
        },
        {
          "id": 4,
          "paths": [
            "M1017.173 884.531l-175.855-175.855c-3.839-3.825-9.136-6.19-14.985-6.19s-11.145 2.365-14.985 6.191l0.001-0.001-56.798-56.798c27.387-35.449 43.897-80.516 43.897-129.439 0-117.519-95.268-212.787-212.787-212.787-58.116 0-110.791 23.298-149.193 61.065l0.029-0.029-5.598-17.203-11.878 36.591h-75.093l-11.947-36.591-11.878 36.591h-38.639l31.13 22.665-11.878 36.591 31.13-22.596 31.198 22.596-11.947-36.591 30.31-21.982 24.713 17.954c-12.991 20.432-22.824 44.293-28.093 69.823l-0.238 1.379h-289.929v24.644h286.72c-0.458 5.278-0.719 11.421-0.719 17.624 0 15.733 1.679 31.074 4.868 45.854l-0.257-1.424h-34.679l-11.947-36.591-11.878 36.591h-38.502l31.13 22.596-11.878 36.659 31.13-22.665 31.198 22.665-11.947-36.659 27.921-20.48c4.845 21.016 12.128 39.558 21.712 56.635l-0.55-1.066-0.41 1.297 0.819-0.614c37.008 65.731 106.335 109.4 185.862 109.4 49.275 0 94.634-16.765 130.684-44.901l-0.472 0.355 56.798 56.73c-3.854 3.865-6.236 9.197-6.236 15.087s2.383 11.222 6.237 15.087l-0.001-0.001 175.787 175.787c3.865 3.854 9.197 6.236 15.087 6.236s11.222-2.383 15.087-6.237l-0.001 0.001 37.751-37.751c3.874-3.868 6.27-9.215 6.27-15.121s-2.396-11.253-6.27-15.121l-0-0zM524.902 359.287l-10.035 30.788h-41.643c14.683-12.717 31.804-23.123 50.495-30.384l1.183-0.405zM709.222 644.369c-31.428 31.49-74.879 50.972-122.88 50.972s-91.452-19.481-122.877-50.969l-0.003-0.003c-11.205-11.186-20.865-23.913-28.636-37.838l-0.445-0.869 27.307 20.002-11.878-36.659 28.672-20.48 28.74 20.48-11.605 36.659 31.198-22.665 31.13 22.665-11.81-36.659 31.061-22.391h-38.502l-11.878-36.591-11.947 36.591h-72.090l-11.878-36.591-11.878 36.591c-3.739-13.446-5.888-28.887-5.888-44.83 0-5.994 0.304-11.917 0.897-17.754l-0.060 0.734h11.878v-24.849h-7.919c4.588-18.117 11.453-34.037 20.423-48.517l-0.421 0.73 24.098 17.545-11.469-35.908c0.819-1.092 1.638-2.116 2.526-3.14l25.805-18.773 28.74 20.89-12.015 36.591 31.198-22.596 31.13 22.596-11.81-36.591 31.13-22.665h-38.571l-10.445-32.017c17.304-6.348 37.285-10.019 58.124-10.019 95.878 0 173.602 77.724 173.602 173.602 0 47.925-19.42 91.315-50.82 122.728l0.001-0.001z",
            "M628.053 839.68h-571.46v-721.101h571.46v164.659c21.062 3.717 39.845 9.595 57.497 17.541l-1.518-0.611v-199.748c-0.116-23.466-19.127-42.453-42.591-42.53l-0.007-0h-598.289c-23.458 0.077-42.453 19.073-42.53 42.523l-0 0.007v752.913c0.039 23.473 19.057 42.491 42.526 42.53l0.004 0h598.016c23.487-0.039 42.521-19.049 42.598-42.523l0-0.007v-110.182c-16.152 7.346-34.946 13.183-54.573 16.591l-1.406 0.202z",
            "M538.692 217.566l-11.878-36.591-11.947 36.591h-72.090l-11.878-36.591-11.878 36.591h-75.23l-11.947-36.591-11.878 36.591h-38.502l31.13 22.596-11.878 36.659 31.13-22.665 31.198 22.665-11.947-36.659 30.31-21.982 30.242 21.982-11.878 36.659 31.13-22.665 31.13 22.665-11.878-36.659 28.672-20.821 28.74 20.821-11.947 36.659 31.198-22.665 31.13 22.665-11.947-36.659 31.198-22.596h-38.502z",
            "M241.391 217.566l-11.878-36.591-11.947 36.591h-76.186l-11.878-36.591-11.878 36.591h-38.502l31.13 22.596-11.947 36.659 31.198-22.665 31.13 22.665-11.878-36.659 30.72-22.323 30.788 22.323-11.947 36.659 31.198-22.665 31.13 22.665-11.878-36.659 31.13-22.596h-38.502z",
            "M241.391 566.409l-11.878-36.591-11.947 36.591h-76.186l-11.878-36.591-11.878 36.591h-38.502l31.13 22.596-11.947 36.659 31.198-22.665 31.13 22.665-11.878-36.659 30.72-22.323 30.788 22.323-11.947 36.659 31.198-22.665 31.13 22.665-11.878-36.659 31.13-22.596h-38.502z",
            "M241.391 390.076l-11.878-36.591-11.947 36.591h-76.186l-11.878-36.591-11.878 36.591h-38.502l31.13 22.665-11.947 36.591 31.198-22.596 31.13 22.596-11.878-36.591 30.72-22.391 30.788 22.391-11.947 36.591 31.198-22.596 31.13 22.596-11.878-36.591 31.13-22.665h-38.502z",
            "M87.859 312.798h337.783v24.644h-337.783v-24.644z",
            "M87.859 661.094h337.783v24.644h-337.783v-24.644z"
          ],
          "attrs": [
            {
              "fill": "rgb(220, 28, 77)"
            },
            {
              "fill": "rgb(220, 28, 77)"
            },
            {
              "fill": "rgb(220, 28, 77)"
            },
            {
              "fill": "rgb(220, 28, 77)"
            },
            {
              "fill": "rgb(220, 28, 77)"
            },
            {
              "fill": "rgb(220, 28, 77)"
            },
            {
              "fill": "rgb(220, 28, 77)"
            },
            {
              "fill": "rgb(220, 28, 77)"
            }
          ],
          "isMulticolor": false,
          "isMulticolor2": false,
          "grid": 0,
          "tags": [
            "populer-mekanlari-bul"
          ]
        },
        {
          "id": 3,
          "paths": [
            "M1016.559 99.533c-3.946-8.908-9.233-16.512-15.697-22.934l-0.004-0.004c-13.792-13.819-32.86-22.368-53.925-22.368-28.92 0-54.077 16.114-66.981 39.853l-0.199 0.401-146.159 273.067c-1.814 2.939-2.888 6.502-2.888 10.316 0 10.971 8.894 19.866 19.866 19.866 7.9 0 14.723-4.611 17.924-11.289l0.052-0.119 146.227-273.067c1.804-3.283 3.913-6.11 6.356-8.609l-0.007 0.007c6.606-6.592 15.725-10.668 25.796-10.668 14.815 0 27.569 8.821 33.298 21.497l0.093 0.23c1.972 4.365 3.122 9.464 3.122 14.832 0 7.745-2.393 14.93-6.479 20.859l0.081-0.124-194.833 281.463c-1.91 2.997-3.044 6.649-3.044 10.567 0 10.971 8.894 19.866 19.866 19.866 6.428 0 12.144-3.053 15.775-7.789l0.035-0.047 194.833-281.532c8.388-12.129 13.399-27.15 13.399-43.343 0-11.193-2.395-21.827-6.699-31.417l0.195 0.486z",
            "M900.71 390.69c-8.033 2.669-13.723 10.116-13.723 18.892 0 2.178 0.35 4.273 0.998 6.234l-0.040-0.14c8.594 25.366 13.585 54.584 13.653 84.959l0 0.033c0 0.015 0 0.032 0 0.050 0 153.412-124.365 277.777-277.777 277.777-45.129 0-87.745-10.762-125.42-29.859l1.584 0.728c-5.871-58.189-30.995-109.616-68.809-148.684l0.065 0.067c-2.878-3.251-7.062-5.289-11.722-5.289-8.634 0-15.633 6.999-15.633 15.633 0 4.439 1.85 8.446 4.821 11.292l0.006 0.005c27.451 28.59 47.252 64.724 55.989 104.983l0.263 1.445c-72.59-50.81-119.469-134.038-119.469-228.216 0-153.374 124.334-277.709 277.709-277.709 0.097 0 0.194 0 0.29 0l-0.015-0c0.216-0.001 0.473-0.001 0.729-0.001 42.671 0 83.065 9.746 119.079 27.133l-1.639-0.713c2.749 1.53 6.030 2.43 9.521 2.43 10.971 0 19.866-8.894 19.866-19.866 0-8.276-5.061-15.37-12.257-18.356l-0.132-0.048c-39.357-19.087-85.606-30.243-134.46-30.243-0.249 0-0.497 0-0.746 0.001l0.038-0c-0.076-0-0.165-0-0.255-0-175.28 0-317.372 142.092-317.372 317.372 0 118.845 65.323 222.433 162.024 276.817l1.593 0.824c-2.745 118.521-99.474 213.55-218.398 213.55-120.648 0-218.453-97.805-218.453-218.453 0-85.687 49.334-159.852 121.148-195.639l1.267-0.572c27.068-13.579 58.925-21.7 92.636-22.117l0.138-0.001c0.241 0.013 0.523 0.021 0.807 0.021 8.634 0 15.633-6.999 15.633-15.633s-6.999-15.633-15.633-15.633c-0.428 0-0.852 0.017-1.272 0.051l0.055-0.004c-38.679 0.411-75.094 9.693-107.436 25.902l1.418-0.644c-83.846 41.516-140.482 126.488-140.482 224.687 0 138.029 111.895 249.924 249.924 249.924 131.165 0 238.731-101.043 249.105-229.537l0.057-0.885c36.443 15.801 78.885 24.992 123.475 24.992 175.355 0 317.508-142.153 317.508-317.508 0-34.765-5.587-68.225-15.913-99.531l0.641 2.244c-2.641-8.039-10.079-13.741-18.848-13.741-2.194 0-4.305 0.357-6.277 1.016l0.14-0.040z",
            "M552.346 516.506c-2.849-1.672-6.274-2.66-9.93-2.66-7.437 0-13.92 4.087-17.325 10.138l-0.052 0.1c-30.788 54.613-31.266 126.293-31.266 129.297-0.001 0.086-0.002 0.188-0.002 0.291 0 5.933 2.637 11.25 6.803 14.843l0.025 0.021c3.437 2.927 7.927 4.708 12.834 4.71l0.001 0c0.49 0.032 1.062 0.051 1.638 0.051s1.149-0.018 1.716-0.055l-0.077 0.004c4.71-0.819 116.804-20.070 157.013-90.999 16.794-29.559 18.773-63.010 6.007-99.601 11.605-37.001 8.602-70.451-9.079-99.465-41.984-69.837-154.556-85.606-159.334-86.221-0.827-0.123-1.782-0.193-2.753-0.193-10.896 0-19.729 8.833-19.729 19.729 0 0.332 0.008 0.662 0.024 0.99l-0.002-0.046c0 4.847 4.574 118.443 69.7 167.526 18.17 13.854 41.191 22.196 66.161 22.196 0.5 0 1-0.003 1.498-0.010l-0.076 0.001c6.876-0.013 13.618-0.534 20.207-1.527l-0.751 0.093c1.992 6.378 3.139 13.712 3.139 21.314 0 13.067-3.39 25.343-9.339 35.995l0.192-0.375c-20.958 36.932-72.977 56.525-104.107 65.399 2.952-31.316 11.605-60.006 24.92-85.904l-0.617 1.322c1.617-2.805 2.571-6.169 2.571-9.756 0-7.335-3.989-13.738-9.916-17.159l-0.096-0.051zM643.618 465.715c-5.057 1.203-10.863 1.893-16.831 1.893-16.77 0-32.268-5.448-44.82-14.67l0.211 0.148c-34.133-25.6-46.763-79.667-51.405-111.684 31.403 7.782 83.9 25.805 106.018 62.259 6.628 11.036 10.549 24.353 10.549 38.586 0 8.389-1.362 16.46-3.877 24.004l0.155-0.535z",
            "M717.414 645.325c-2.479-1.195-5.39-1.893-8.464-1.893-10.971 0-19.866 8.894-19.866 19.866 0 8.699 5.591 16.092 13.376 18.781l0.14 0.042c8.057 3.481 17.434 5.533 27.282 5.598l0.024 0c24.316-0.363 45.198-14.703 54.999-35.329l0.16-0.375c1.393-2.645 2.21-5.78 2.21-9.106 0-10.971-8.894-19.866-19.866-19.866-8.326 0-15.455 5.122-18.409 12.386l-0.048 0.133c-1.434 3.14-9.762 18.5-31.539 9.762z",
            "M751.753 562.381c0.036 0 0.079 0 0.121 0 9.321 0 17.121-6.509 19.105-15.229l0.025-0.131c1.98-7.646 8.329-20.002 28.945-16.316 0.825 0.121 1.777 0.191 2.745 0.191 10.971 0 19.866-8.894 19.866-19.866 0-9.526-6.705-17.486-15.653-19.418l-0.131-0.024c-4.211-1.019-9.045-1.603-14.015-1.603-29.321 0-53.892 20.335-60.379 47.672l-0.084 0.422c-0.33 1.354-0.52 2.908-0.52 4.506 0 10.934 8.864 19.797 19.797 19.797 0.039 0 0.077-0 0.116-0l-0.006 0z",
            "M236.749 658.978v101.649h-101.717c-8.936 0-16.179 7.244-16.179 16.179s7.244 16.179 16.179 16.179h101.717v101.717c-0 8.936 7.244 16.179 16.179 16.179s16.179-7.244 16.179-16.179v0-101.717h101.717c8.936 0 16.179-7.244 16.179-16.179s-7.244-16.179-16.179-16.179h-101.717v-101.649c0-8.936-7.244-16.179-16.179-16.179s-16.179 7.244-16.179 16.179h0z"
          ],
          "attrs": [
            {
              "fill": "rgb(220, 28, 77)"
            },
            {
              "fill": "rgb(220, 28, 77)"
            },
            {
              "fill": "rgb(220, 28, 77)"
            },
            {
              "fill": "rgb(220, 28, 77)"
            },
            {
              "fill": "rgb(220, 28, 77)"
            },
            {
              "fill": "rgb(220, 28, 77)"
            }
          ],
          "isMulticolor": false,
          "isMulticolor2": false,
          "grid": 0,
          "tags": [
            "pratik"
          ]
        },
        {
          "id": 2,
          "paths": [
            "M1017.173 882.347l-175.991-175.787c-3.835-3.862-9.148-6.253-15.019-6.253s-11.184 2.391-15.017 6.252l-0.001 0.001-56.73-56.798c27.969-35.714 44.85-81.281 44.85-130.791 0-117.708-95.421-213.129-213.129-213.129s-213.129 95.421-213.129 213.129c0 117.708 95.421 213.129 213.129 213.129 49.241 0 94.581-16.699 130.667-44.742l-0.482 0.36 56.798 56.798c-3.866 3.846-6.259 9.17-6.259 15.053s2.393 11.207 6.258 15.052l0.001 0.001 175.787 175.855c3.861 3.833 9.18 6.202 15.053 6.202s11.192-2.369 15.054-6.204l-0.001 0.001 38.025-37.956c3.878-3.879 6.277-9.237 6.277-15.156 0-5.85-2.344-11.153-6.143-15.021l0.003 0.003zM708.813 642.253c-31.403 31.341-74.754 50.722-122.63 50.722-95.878 0-173.602-77.724-173.602-173.602s77.724-173.602 173.602-173.602c47.877 0 91.227 19.381 122.633 50.725l-0.003-0.003c31.457 31.443 50.915 74.889 50.915 122.88s-19.458 91.437-50.914 122.879l-0.001 0.001z",
            "M122.334 709.973h314.573c-7.995-6.276-15.12-12.622-21.834-19.376l-0.011-0.011c-5.841-5.811-11.376-11.908-16.591-18.278l-0.339-0.427h-275.797z",
            "M627.371 837.7h-571.119v-721.237h571.119v164.591c21.087 3.782 39.865 9.656 57.54 17.554l-1.562-0.623v-199.68c-0.039-23.473-19.057-42.491-42.526-42.53l-0.004-0h-598.016c-0.041-0-0.089-0-0.137-0-23.516 0-42.589 19.025-42.666 42.523l-0 0.007v752.845c0.116 23.466 19.127 42.453 42.591 42.53l0.007 0h598.016c23.458-0.077 42.453-19.073 42.53-42.523l0-0.007v-110.114c-16.076 7.257-34.795 13.067-54.329 16.514l-1.445 0.211z",
            "M122.334 526.199v38.093h225.826c-2.188-11.231-3.637-24.353-4.020-37.741l-0.008-0.351z",
            "M122.334 380.655v38.093h243.78c6.732-14.617 14.019-27.115 22.341-38.827l-0.495 0.734z",
            "M122.334 235.042h445.85v38.093h-445.85v-38.093z"
          ],
          "attrs": [
            {
              "fill": "rgb(220, 28, 77)"
            },
            {
              "fill": "rgb(220, 28, 77)"
            },
            {
              "fill": "rgb(220, 28, 77)"
            },
            {
              "fill": "rgb(220, 28, 77)"
            },
            {
              "fill": "rgb(220, 28, 77)"
            },
            {
              "fill": "rgb(220, 28, 77)"
            }
          ],
          "isMulticolor": false,
          "isMulticolor2": false,
          "grid": 0,
          "tags": [
            "restoranti-sec"
          ]
        },
        {
          "id": 1,
          "paths": [
            "M471.040 725.47h80.555c5.759-0.466 10.257-5.254 10.257-11.093s-4.497-10.628-10.217-11.091l-0.039-0.003h-80.555c-5.759 0.466-10.257 5.254-10.257 11.093s4.497 10.628 10.217 11.091l0.039 0.003z",
            "M471.040 768.205h80.555c5.759-0.466 10.257-5.254 10.257-11.093s-4.497-10.628-10.217-11.091l-0.039-0.003h-80.555c-5.759 0.466-10.257 5.254-10.257 11.093s4.497 10.628 10.217 11.091l0.039 0.003z",
            "M551.731 808.209h-80.691c-10.238 0.626-18.304 9.082-18.304 19.422s8.066 18.796 18.249 19.419l0.055 0.003h80.555c10.238-0.626 18.304-9.082 18.304-19.422s-8.066-18.796-18.249-19.419l-0.055-0.003z",
            "M928.427 456.158c0-0.001 0-0.003 0-0.004 0-26.053-21.12-47.172-47.172-47.172-0.216 0-0.432 0.001-0.647 0.004l0.033-0h-34.133v-19.456h0.614l0.546-42.735c-0.078-77.245-62.696-139.84-139.943-139.878l-122.884-0v-37.751c-0.039-11.974-9.735-21.67-21.705-21.709l-0.004-0h-103.561c-11.974 0.039-21.67 9.735-21.709 21.705l-0 0.004v37.751h-122.88c-77.133 0.194-139.596 62.729-139.674 139.871l-0 0.007v15.565h-0.614v46.080h-32.7c-0.536-0.022-1.164-0.034-1.795-0.034-26.090 0-47.241 21.15-47.241 47.241s21.15 47.241 47.241 47.241c0.631 0 1.26-0.012 1.885-0.037l-0.090 0.003h32.7v266.991c0.073 75.101 59.233 136.36 133.493 139.799l0.309 0.011v13.653c0.039 11.96 9.743 21.641 21.709 21.641 0 0 0-0 0-0l56.593 0c0.102 0.002 0.223 0.003 0.344 0.003 11.763 0 21.299-9.536 21.299-21.299 0-0.121-0.001-0.242-0.003-0.362l0 0.018v-13.312h205.414v13.312c0.039 11.96 9.743 21.641 21.709 21.641 0 0 0-0 0-0l56.593 0c0.102 0.002 0.223 0.003 0.344 0.003 11.763 0 21.299-9.536 21.299-21.299 0-0.121-0.001-0.242-0.003-0.362l0 0.018v-13.653c74.278-3.27 133.259-64.281 133.259-139.069 0-0.261-0.001-0.521-0.002-0.781l0 0.040v-266.991h34.133c0.041 0 0.090 0 0.138 0 25.871 0 46.871-20.856 47.102-46.673l0-0.022zM465.647 175.241h91.614v31.676h-91.614zM202.479 346.795c0.232-61.852 50.31-111.93 112.14-112.162l0.022-0h140.151c1.435 0.345 3.083 0.544 4.777 0.546l103.767 0c1.673-0.005 3.297-0.204 4.854-0.575l-0.144 0.029h139.674c61.852 0.232 111.93 50.31 112.162 112.14l0 0.022v15.019h-617.404zM141.38 475.614c-10.238-0.626-18.304-9.082-18.304-19.422s8.066-18.796 18.249-19.419l0.055-0.003h33.314v38.844zM336.282 917.026v-7.236h44.442v7.236zM418.202 882.005v-193.741c0.077-9.772 7.978-17.673 17.742-17.749l0.007-0h150.187c9.772 0.077 17.673 7.978 17.749 17.742l0 0.007v193.741zM641.707 917.026v-7.236h44.442v7.236zM820.497 769.843c-0.232 61.852-50.31 111.93-112.14 112.162l-0.022 0h-76.117v-193.741c-0.116-25.101-20.433-45.418-45.523-45.534l-0.011-0h-150.187c-25.101 0.116-45.418 20.433-45.534 45.523l-0 0.011v193.741h-75.776c-61.852-0.232-111.93-50.31-112.162-112.14l-0-0.022v-380.314l617.404 0.614v18.842h-0.546v93.867h0.546zM847.804 436.224h32.836c0.344-0.022 0.747-0.034 1.152-0.034 10.745 0 19.456 8.711 19.456 19.456s-8.711 19.456-19.456 19.456c-0.405 0-0.808-0.012-1.207-0.037l0.055 0.003h-33.314z",
            "M929.792 652.698c8.329-6.827 20.002-16.657 20.002-34.953-0.58-14.663-8.336-27.397-19.833-34.85l-0.17-0.103c-7.782-6.827-11.674-10.035-11.674-17.818-0.466-5.759-5.254-10.257-11.093-10.257s-10.628 4.497-11.091 10.217l-0.003 0.039c0 18.364 11.674 28.331 20.002 35.021s11.674 9.967 11.674 17.749-3.891 11.127-11.674 17.749-20.002 16.657-20.002 35.021 11.674 27.716 20.002 34.133 11.674 9.967 11.674 17.749-3.891 11.127-11.674 17.749-20.002 16.657-20.002 35.021c0.466 5.759 5.254 10.257 11.093 10.257s10.628-4.497 11.091-10.217l0.003-0.039c0-7.782 3.891-11.127 11.674-17.749s20.002-16.657 20.002-35.021-11.674-27.716-20.002-34.133-11.674-9.967-11.674-17.749 3.891-11.127 11.674-17.818z",
            "M1001.404 627.166c-7.782-6.827-11.605-9.967-11.605-17.749s3.823-11.127 11.605-17.749 20.002-16.657 20.002-35.021-11.674-28.262-20.002-34.953-11.537-9.694-11.537-17.749c0-6.146-4.982-11.127-11.127-11.127s-11.127 4.982-11.127 11.127v0c0.58 14.663 8.336 27.397 19.833 34.85l0.17 0.103c7.782 6.827 11.674 10.035 11.674 17.749s-3.891 11.127-11.674 17.818-20.002 16.657-20.002 34.953 11.674 27.785 20.002 34.133 11.674 10.035 11.674 17.818-3.891 11.059-11.674 17.749-20.002 16.657-20.002 34.953c0 6.146 4.982 11.127 11.127 11.127s11.127-4.982 11.127-11.127v0c0-7.782 3.823-11.059 11.605-17.749s20.002-16.657 20.002-34.953-11.742-27.511-20.070-34.202z",
            "M107.52 599.996c8.329-6.827 20.002-16.657 20.002-35.021-0.466-5.759-5.254-10.257-11.093-10.257s-10.628 4.497-11.091 10.217l-0.003 0.039c0 7.782-3.891 11.127-11.674 17.818-11.667 7.555-19.422 20.289-20 34.869l-0.003 0.083c0 18.295 11.674 27.785 20.002 34.953s11.674 10.035 11.674 17.818-3.891 11.059-11.674 17.749-20.002 16.657-20.002 34.133 11.674 27.785 20.002 35.021 11.674 9.967 11.674 17.749c0.466 5.759 5.254 10.257 11.093 10.257s10.628-4.497 11.091-10.217l0.003-0.039c0-18.364-11.674-27.785-20.002-35.021s-11.947-9.694-11.947-17.476 3.891-11.059 11.674-17.749 20.002-16.657 20.002-34.133-11.196-28.058-19.729-35.294-11.947-9.967-11.947-17.749 4.164-11.127 11.947-17.749z",
            "M35.908 538.897c11.667-7.555 19.422-20.289 20-34.869l0.003-0.083c0.022-0.261 0.034-0.564 0.034-0.871 0-6.146-4.982-11.127-11.127-11.127s-11.127 4.982-11.127 11.127c0 0.307 0.012 0.61 0.037 0.91l-0.003-0.039c0 7.782-3.891 11.059-11.674 17.749s-20.002 16.657-20.002 34.953 11.605 27.785 20.002 35.021 11.674 9.967 11.674 17.749-3.891 11.127-11.674 17.749-20.002 16.657-20.002 34.475 11.605 27.853 20.002 34.679 11.674 9.967 11.674 17.749c-0.022 0.261-0.034 0.564-0.034 0.871 0 6.146 4.982 11.127 11.127 11.127s11.127-4.982 11.127-11.127c0-0.307-0.012-0.61-0.037-0.91l0.003 0.039c0-18.295-11.674-27.716-20.002-34.953s-11.674-10.035-11.674-17.749 3.891-11.127 11.674-17.818 20.002-16.657 20.002-34.133-11.674-27.785-20.002-34.953-11.674-10.035-11.674-17.818 3.891-11.059 11.674-17.749z"
          ],
          "attrs": [
            {
              "fill": "rgb(220, 28, 77)"
            },
            {
              "fill": "rgb(220, 28, 77)"
            },
            {
              "fill": "rgb(220, 28, 77)"
            },
            {
              "fill": "rgb(220, 28, 77)"
            },
            {
              "fill": "rgb(220, 28, 77)"
            },
            {
              "fill": "rgb(220, 28, 77)"
            },
            {
              "fill": "rgb(220, 28, 77)"
            },
            {
              "fill": "rgb(220, 28, 77)"
            }
          ],
          "isMulticolor": false,
          "isMulticolor2": false,
          "grid": 0,
          "tags": [
            "yemeklerinizi-hazirlayin"
          ]
        },
        {
          "id": 0,
          "paths": [
            "M513.297 834.628c6.334 0 11.469-5.135 11.469-11.469v0-72.226h71.953c5.942-0.473 10.585-5.412 10.585-11.435s-4.643-10.961-10.544-11.432l-0.040-0.003h-71.953v-71.68c0-6.334-5.135-11.469-11.469-11.469s-11.469 5.135-11.469 11.469l0-0v71.953h-71.748c-5.43 0.973-9.498 5.661-9.498 11.298s4.068 10.325 9.428 11.288l0.070 0.010h71.748v71.953c-0.002 0.081-0.003 0.177-0.003 0.273 0 6.334 5.135 11.469 11.469 11.469 0.001 0 0.002-0 0.003-0l-0 0z",
            "M664.098 718.165c-7.8 0.152-14.064 6.511-14.064 14.333 0 0.073 0.001 0.146 0.002 0.218l-0-0.011c0.015 0.767 0.024 1.672 0.024 2.578 0 77.554-62.87 140.425-140.425 140.425s-140.425-62.87-140.425-140.425c0-77.554 62.87-140.425 140.425-140.425 29.107 0 56.146 8.856 78.569 24.021l-0.496-0.316c2.094 1.266 4.624 2.015 7.329 2.015 7.918 0 14.336-6.418 14.336-14.336 0-4.655-2.218-8.791-5.656-11.41l-0.035-0.026c-26.328-17.786-58.777-28.392-93.703-28.392-93.239 0-168.823 75.585-168.823 168.823s75.585 168.823 168.823 168.823c93.239 0 168.823-75.585 168.823-168.823 0-1.059-0.010-2.115-0.029-3.169l0.002 0.158c-0.112-7.794-6.456-14.069-14.266-14.069-0.145 0-0.289 0.002-0.432 0.006l0.021-0z",
            "M968.841 507.904c-12.151-5.188-23.279-9.694-33.178-13.653-15.178-5.743-27.327-11.166-39.139-17.158l2.275 1.047c-0.165-3.408-0.259-7.403-0.259-11.419 0-6.456 0.243-12.855 0.719-19.189l-0.051 0.843c10.854-10.991 29.286-40.414 29.833-114.483 0-19.593-0.819-42.394-14.677-64.444-19.201-31.705-53.508-52.57-92.689-52.57-0.342 0-0.684 0.002-1.025 0.005l0.052-0h-0.819c-0.333-0.004-0.727-0.006-1.122-0.006-39.126 0-73.392 20.806-92.338 51.957l-0.27 0.478c-13.653 21.982-14.882 44.783-14.746 64.444 0.614 74.138 19.046 103.561 29.901 114.551 0.284 4.438 0.446 9.624 0.446 14.848s-0.162 10.409-0.481 15.552l0.035-0.704c-9.866 5.16-22.307 10.743-35.071 15.677l-2.681 0.911c-9.694 3.891-20.48 8.26-32.768 13.653l-2.458 1.092-20.89-8.465c-18.896-7.275-34.276-14.344-49.165-22.217l2.471 1.191c-0.45-6.026-0.707-13.052-0.707-20.139s0.257-14.113 0.761-21.071l-0.054 0.932c12.288-12.083 35.977-47.309 36.727-139.332 0-23.689-1.024-51.132-17.545-77.551-23.066-38.050-64.254-63.086-111.29-63.086-0.499 0-0.997 0.003-1.494 0.008l0.076-0.001h-1.092c-0.28-0.002-0.611-0.003-0.943-0.003-47.034 0-88.221 25.035-110.963 62.506l-0.325 0.576c-16.521 26.419-17.749 53.931-17.545 77.551 0.751 92.023 24.439 127.249 36.727 139.332 0.566 6.757 0.888 14.624 0.888 22.566 0 6.231-0.198 12.416-0.589 18.549l0.043-0.837c-12.54 6.656-28.085 13.686-44.066 19.838l-3.106 1.051-15.701 6.349c-11.059-4.71-21.231-8.806-30.379-12.493-15.458-5.913-27.896-11.539-39.973-17.767l2.221 1.041c-0.185-3.584-0.291-7.781-0.291-12.003 0-6.226 0.229-12.398 0.68-18.509l-0.048 0.816c10.854-10.991 29.286-40.414 29.901-114.551 0-19.593-0.887-42.394-14.609-64.375-19.224-31.67-53.524-52.505-92.689-52.505-0.462 0-0.923 0.003-1.384 0.009l0.070-0.001h-0.887c-0.194-0.001-0.424-0.002-0.653-0.002-39.213 0-73.555 20.86-92.533 52.088l-0.271 0.48c-14.131 22.118-14.814 44.715-14.677 64.512 0.546 74.069 18.978 103.492 29.901 114.483 0.384 5.331 0.603 11.549 0.603 17.819 0 4.129-0.095 8.236-0.283 12.319l0.021-0.579c-9.508 5.031-21.537 10.517-33.874 15.393l-2.649 0.923c-9.899 4.028-21.026 8.533-33.178 13.653-44.715 19.115-52.497 46.012-54.204 72.431-0.021 0.289-0.033 0.627-0.033 0.968 0 7.675 6.061 13.935 13.657 14.255l0.029 0.001h0.956c7.655-0.029 13.894-6.053 14.266-13.62l0.001-0.033c0.956-14.746 2.185-33.041 36.591-47.787 12.015-5.12 22.938-9.557 32.631-13.653 17.806-6.463 32.958-13.617 47.325-21.973l-1.382 0.742c5.598-3.686 11.947-7.919 7.919-59.392-0.112-4.637-2.667-8.653-6.423-10.821l-0.062-0.033s-22.255-17.135-22.869-95.573c0-16.316 0.546-33.519 10.308-49.084 14.084-23.224 39.227-38.505 67.939-38.505 0.235 0 0.47 0.001 0.705 0.003l-0.036-0h1.297c0.291-0.004 0.634-0.006 0.977-0.006 29.049 0 54.476 15.507 68.454 38.695l0.201 0.359c9.626 15.497 10.308 32.7 10.24 49.015-0.614 78.029-22.323 95.573-22.255 95.573v0c-4.036 2.339-6.809 6.471-7.232 11.277l-0.004 0.055c-3.959 51.541 2.458 55.706 7.987 59.255 13.278 7.845 28.727 15.141 44.86 21.013l1.971 0.627 4.642 1.911c-43.008 22.187-51.132 51.746-53.043 80.623-0.019 0.274-0.030 0.595-0.030 0.918 0 7.554 5.87 13.737 13.298 14.235l0.043 0.002h0.956c0.004 0 0.009 0 0.013 0 7.664 0 13.916-6.042 14.253-13.623l0.001-0.030c1.57-23.279 6.212-44.032 47.036-61.44 14.814-6.349 28.331-11.81 40.346-16.657 21.645-7.833 40.063-16.507 57.529-26.64l-1.687 0.903c5.871-3.891 13.175-8.67 8.329-70.11-0.222-4.728-2.89-8.786-6.76-10.957l-0.067-0.034s-28.467-21.436-29.286-120.354c0-20.48 0.751-42.257 13.175-62.191 17.867-29.951 50.099-49.701 86.944-49.701 0.25 0 0.499 0.001 0.749 0.003l-0.038-0c0.103 0.016 0.221 0.025 0.341 0.025s0.239-0.009 0.354-0.027l-0.013 0.002h0.887c0.546-0.011 1.19-0.017 1.835-0.017 36.823 0 69.039 19.726 86.657 49.187l0.255 0.46c12.493 19.934 13.653 41.643 13.244 62.191-1.092 98.714-29.082 119.74-29.082 119.74v0c-3.881 2.416-6.505 6.537-6.824 11.288l-0.002 0.044c-4.847 61.44 2.458 66.219 8.329 70.11 15.779 9.23 34.197 17.904 53.4 24.952l2.443 0.784 24.576 10.172c0.501 0.253 1.11 0.507 1.738 0.72l0.105 0.031 13.653 5.734c44.373 19.046 45.807 42.53 47.104 63.283 0.338 7.611 6.591 13.653 14.254 13.653 0.005 0 0.009-0 0.014-0l0.887 0c7.624-0.323 13.682-6.582 13.682-14.256 0-0.316-0.010-0.631-0.031-0.942l0.002 0.042c-1.638-26.897-7.305-56.866-48.811-80.077l10.377-4.233c18.035-6.476 33.416-13.726 47.975-22.232l-1.348 0.728c5.666-3.686 12.151-7.851 8.192-59.392-0.175-4.722-2.863-8.779-6.758-10.889l-0.068-0.034s-22.255-17.135-22.869-95.573c0-16.316 0.614-33.519 10.377-49.015 13.966-23.61 39.298-39.196 68.27-39.196 0.455 0 0.909 0.004 1.362 0.012l-0.068-0.001h0.41c0.342-0.005 0.745-0.008 1.15-0.008 28.977 0 54.322 15.55 68.145 38.761l0.201 0.364c9.762 15.565 10.445 32.768 10.308 49.084-0.614 77.961-22.323 95.573-22.187 95.573v0c-4.017 2.345-6.768 6.479-7.165 11.28l-0.003 0.052c-4.028 51.473 2.321 55.706 7.919 59.392 12.985 7.614 28.137 14.768 43.936 20.584l2.007 0.647c9.694 3.891 20.48 8.329 32.631 13.653 34.611 14.814 35.703 33.041 36.727 49.084 0.338 7.611 6.591 13.653 14.254 13.653 0.005 0 0.009-0 0.014-0l0.887 0c7.622-0.325 13.678-6.583 13.678-14.256 0-0.292-0.009-0.583-0.026-0.871l0.002 0.040c-1.434-19.388-3.482-53.111-54.272-74.889zM503.535 187.802v0z"
          ],
          "attrs": [
            {
              "fill": "rgb(220, 28, 77)"
            },
            {
              "fill": "rgb(220, 28, 77)"
            },
            {
              "fill": "rgb(220, 28, 77)"
            }
          ],
          "isMulticolor": false,
          "isMulticolor2": false,
          "grid": 0,
          "tags": [
            "yeni-musteriler"
          ]
        }
      ],
      "invisible": false,
      "colorThemes": []
    },
    {
      "selection": [
        {
          "order": 1,
          "id": 6,
          "name": "user",
          "prevSize": 20,
          "code": 59661,
          "tempChar": ""
        },
        {
          "order": 1,
          "id": 5,
          "name": "send",
          "prevSize": 20,
          "code": 59662,
          "tempChar": ""
        },
        {
          "order": 2,
          "id": 4,
          "name": "envelope",
          "prevSize": 20,
          "code": 59663,
          "tempChar": ""
        },
        {
          "order": 1,
          "id": 3,
          "name": "arrow-thin-up",
          "prevSize": 20,
          "code": 59664,
          "tempChar": ""
        },
        {
          "order": 2,
          "id": 2,
          "name": "arrow-thin-right",
          "prevSize": 20,
          "code": 59665,
          "tempChar": ""
        },
        {
          "order": 3,
          "id": 1,
          "name": "arrow-thin-left",
          "prevSize": 20,
          "code": 59666,
          "tempChar": ""
        },
        {
          "order": 4,
          "id": 0,
          "name": "arrow-thin-down",
          "prevSize": 20,
          "code": 59667,
          "tempChar": ""
        }
      ],
      "id": 5,
      "metadata": {
        "name": "Zondicons (subset)",
        "importSize": {
          "width": 20,
          "height": 20
        },
        "url": "http://www.zondicons.com/",
        "designer": "Steve Schoger",
        "designerURL": "http://www.steveschoger.com/",
        "license": "CC BY 4.0",
        "licenseURL": "https://creativecommons.org/licenses/by/4.0/",
        "iconsHash": 845300721
      },
      "height": 1024,
      "prevSize": 20,
      "icons": [
        {
          "id": 6,
          "paths": [
            "M256 256c0-141.385 114.615-256 256-256s256 114.615 256 256v0 102.4c0 141.385-114.615 256-256 256s-256-114.615-256-256v0-102.4zM0 854.016c146.431-86.26 322.601-137.217 510.673-137.217 0.466 0 0.933 0 1.399 0.001h-0.072c186.368 0 361.472 49.664 512 137.216v169.984h-1024v-169.984z"
          ],
          "attrs": [
            {}
          ],
          "isMulticolor": false,
          "isMulticolor2": false,
          "tags": [
            "user"
          ],
          "grid": 20
        },
        {
          "id": 5,
          "paths": [
            "M0 0l1024 512-1024 512v-1024zM0 409.6v204.8l512-102.4-512-102.4z"
          ],
          "attrs": [
            {}
          ],
          "isMulticolor": false,
          "isMulticolor2": false,
          "tags": [
            "send"
          ],
          "grid": 20
        },
        {
          "id": 4,
          "paths": [
            "M921.6 102.4c56.554 0 102.4 45.846 102.4 102.4v0 614.4c0 56.554-45.846 102.4-102.4 102.4v0h-819.2c-56.554 0-102.4-45.846-102.4-102.4v0-614.4c0-56.32 46.080-102.4 102.4-102.4h819.2zM697.856 568.32l326.144 250.88v-102.4l-262.144-199.68 262.144-209.92v-102.4l-512 409.6-512-409.6v102.4l262.144 209.92-262.144 199.68v102.4l326.144-250.88 185.856 148.48 185.856-148.48z"
          ],
          "attrs": [
            {}
          ],
          "isMulticolor": false,
          "isMulticolor2": false,
          "tags": [
            "envelope"
          ],
          "grid": 20
        },
        {
          "id": 3,
          "paths": [
            "M460.8 195.994l-310.835 310.835-72.397-72.397 434.432-434.432 434.432 434.432-72.397 72.397-310.835-310.835v828.006h-102.4v-828.006z"
          ],
          "attrs": [
            {}
          ],
          "isMulticolor": false,
          "isMulticolor2": false,
          "tags": [
            "arrow-thin-up"
          ],
          "grid": 20
        },
        {
          "id": 2,
          "paths": [
            "M828.006 460.8l-310.835-310.835 72.397-72.397 434.432 434.432-434.432 434.432-72.397-72.397 310.835-310.835h-828.006v-102.4z"
          ],
          "attrs": [
            {}
          ],
          "isMulticolor": false,
          "isMulticolor2": false,
          "tags": [
            "arrow-thin-right"
          ],
          "grid": 20
        },
        {
          "id": 1,
          "paths": [
            "M195.994 460.8l310.835-310.835-72.397-72.397-434.432 434.432 434.432 434.432 72.397-72.397-310.835-310.835h828.006v-102.4h-828.006z"
          ],
          "attrs": [
            {}
          ],
          "isMulticolor": false,
          "isMulticolor2": false,
          "tags": [
            "arrow-thin-left"
          ],
          "grid": 20
        },
        {
          "id": 0,
          "paths": [
            "M460.8 828.006l-310.835-310.835-72.397 72.397 434.432 434.432 434.432-434.432-72.397-72.397-310.835 310.835v-828.006h-102.4z"
          ],
          "attrs": [
            {}
          ],
          "isMulticolor": false,
          "isMulticolor2": false,
          "tags": [
            "arrow-thin-down"
          ],
          "grid": 20
        }
      ],
      "invisible": false,
      "colorThemes": []
    },
    {
      "selection": [
        {
          "order": 1,
          "id": 0,
          "name": "align-left",
          "prevSize": 24,
          "code": 59670,
          "tempChar": ""
        }
      ],
      "id": 4,
      "metadata": {
        "name": "Feather (subset)",
        "importSize": {
          "width": 24,
          "height": 24
        },
        "url": "https://feathericons.com/",
        "designer": "Cole Bemis",
        "designerURL": "http://colebemis.com/",
        "license": "MIT",
        "licenseURL": "https://github.com/feathericons/feather/blob/master/LICENSE",
        "iconsHash": 555821689
      },
      "height": 1024,
      "prevSize": 24,
      "icons": [
        {
          "id": 0,
          "paths": [
            "M725.333 384h-597.333c-23.552 0-42.667 19.115-42.667 42.667s19.115 42.667 42.667 42.667h597.333c23.552 0 42.667-19.115 42.667-42.667s-19.115-42.667-42.667-42.667zM896 213.333h-768c-23.552 0-42.667 19.115-42.667 42.667s19.115 42.667 42.667 42.667h768c23.552 0 42.667-19.115 42.667-42.667s-19.115-42.667-42.667-42.667zM896 554.667h-768c-23.552 0-42.667 19.115-42.667 42.667s19.115 42.667 42.667 42.667h768c23.552 0 42.667-19.115 42.667-42.667s-19.115-42.667-42.667-42.667zM725.333 725.333h-597.333c-23.552 0-42.667 19.115-42.667 42.667s19.115 42.667 42.667 42.667h597.333c23.552 0 42.667-19.115 42.667-42.667s-19.115-42.667-42.667-42.667z"
          ],
          "attrs": [
            {}
          ],
          "isMulticolor": false,
          "isMulticolor2": false,
          "tags": [
            "align-left"
          ],
          "grid": 24
        }
      ],
      "invisible": false,
      "colorThemes": []
    },
    {
      "selection": [
        {
          "order": 1,
          "id": 1,
          "name": "chevron-thin-right",
          "prevSize": 20,
          "code": 59668,
          "tempChar": ""
        },
        {
          "order": 1,
          "id": 0,
          "name": "chevron-thin-left",
          "prevSize": 20,
          "code": 59669,
          "tempChar": ""
        }
      ],
      "id": 3,
      "metadata": {
        "name": "Entypo+ (subset)",
        "importSize": {
          "width": 20,
          "height": 20
        },
        "url": "http://www.entypo.com/",
        "designerURL": "http://www.danielbruce.se/",
        "designer": "Daniel Bruce",
        "license": "CC BY-SA 4.0",
        "licenseURL": "https://creativecommons.org/licenses/by-sa/4.0/",
        "iconsHash": -340016579
      },
      "height": 1024,
      "prevSize": 20,
      "icons": [
        {
          "id": 1,
          "paths": [
            "M678.4 512l-365.619-379.904c-13.722-13.824-13.722-36.198 0-50.125 13.722-13.824 35.891-13.824 49.613 0l400.896 404.89c13.722 13.875 13.722 36.301 0 50.125l-400.896 404.89c-13.722 13.875-35.891 13.824-49.613 0-13.722-13.773-13.722-36.198 0-50.125l365.619-379.75z"
          ],
          "attrs": [
            {}
          ],
          "isMulticolor": false,
          "isMulticolor2": false,
          "tags": [
            "chevron-thin-right"
          ],
          "grid": 20
        },
        {
          "id": 0,
          "paths": [
            "M711.219 891.802c13.722 13.926 13.722 36.301 0 50.125s-35.891 13.875-49.613 0l-400.896-404.89c-13.722-13.824-13.722-36.198 0-50.125l400.896-404.89c13.722-13.824 35.891-13.824 49.613 0 13.722 13.875 13.722 36.301 0 50.125l-365.619 379.853 365.619 379.802z"
          ],
          "attrs": [
            {}
          ],
          "isMulticolor": false,
          "isMulticolor2": false,
          "tags": [
            "chevron-thin-left"
          ],
          "grid": 20
        }
      ],
      "invisible": false,
      "colorThemes": []
    },
    {
      "selection": [
        {
          "order": 1,
          "id": 9,
          "prevSize": 32,
          "code": 59680,
          "name": "calendar",
          "tempChar": ""
        },
        {
          "order": 1,
          "id": 8,
          "name": "linkedin, brand, social",
          "prevSize": 32,
          "code": 59671,
          "tempChar": ""
        },
        {
          "order": 2,
          "id": 7,
          "name": "vimeo, brand1, social1",
          "prevSize": 32,
          "code": 59672,
          "tempChar": ""
        },
        {
          "order": 3,
          "id": 6,
          "name": "youtube, brand2, social2",
          "prevSize": 32,
          "code": 59673,
          "tempChar": ""
        },
        {
          "order": 4,
          "id": 5,
          "name": "twitter, brand3, tweet, social3",
          "prevSize": 32,
          "code": 59674,
          "tempChar": ""
        },
        {
          "order": 5,
          "id": 4,
          "name": "whatsapp, brand4, social4",
          "prevSize": 32,
          "code": 59675,
          "tempChar": ""
        },
        {
          "order": 6,
          "id": 3,
          "name": "instagram, brand5, social5",
          "prevSize": 32,
          "code": 59676,
          "tempChar": ""
        },
        {
          "order": 7,
          "id": 2,
          "name": "facebook, brand6, social6",
          "prevSize": 32,
          "code": 59677,
          "tempChar": ""
        },
        {
          "order": 8,
          "id": 1,
          "name": "share, social7",
          "prevSize": 32,
          "code": 59678,
          "tempChar": ""
        },
        {
          "order": 1,
          "id": 0,
          "name": "price-tag",
          "prevSize": 32,
          "code": 59679,
          "tempChar": ""
        }
      ],
      "id": 1,
      "metadata": {
        "name": "IcoMoon - Free (subset)",
        "licenseURL": "https://icomoon.io/#icons-icomoon",
        "license": "GPL or CC BY 4.0",
        "designerURL": "http://keyamoon.com",
        "designer": "Keyamoon",
        "url": "https://icomoon.io/#icons-icomoon",
        "iconsHash": 767040192,
        "importSize": {
          "width": 32,
          "height": 32
        }
      },
      "height": 1024,
      "prevSize": 32,
      "icons": [
        {
          "id": 9,
          "paths": [
            "M320 384h128v128h-128zM512 384h128v128h-128zM704 384h128v128h-128zM128 768h128v128h-128zM320 768h128v128h-128zM512 768h128v128h-128zM320 576h128v128h-128zM512 576h128v128h-128zM704 576h128v128h-128zM128 576h128v128h-128zM832 0v64h-128v-64h-448v64h-128v-64h-128v1024h960v-1024h-128zM896 960h-832v-704h832v704z"
          ],
          "attrs": [
            {}
          ],
          "isMulticolor": false,
          "isMulticolor2": false,
          "tags": [
            "calendar",
            "date",
            "schedule",
            "time",
            "day"
          ],
          "grid": 16
        },
        {
          "id": 8,
          "paths": [
            "M384 384h177.106v90.782h2.532c24.64-44.194 84.958-90.782 174.842-90.782 186.946 0 221.52 116.376 221.52 267.734v308.266h-184.61v-273.278c0-65.184-1.334-149.026-96.028-149.026-96.148 0-110.82 70.986-110.82 144.292v278.012h-184.542v-576z",
            "M64 384h192v576h-192v-576z",
            "M256 224c0 53.019-42.981 96-96 96s-96-42.981-96-96c0-53.019 42.981-96 96-96s96 42.981 96 96z"
          ],
          "attrs": [
            {},
            {},
            {}
          ],
          "isMulticolor": false,
          "isMulticolor2": false,
          "tags": [
            "linkedin",
            "brand",
            "social"
          ],
          "grid": 16
        },
        {
          "id": 7,
          "paths": [
            "M1023.6 274c-4.6 99.6-74.2 236.2-208.8 409.4-139.2 180.8-257 271.4-353.4 271.4-59.6 0-110.2-55-151.4-165.2-27.6-101-55-202-82.6-303-30.6-110.2-63.4-165.2-98.6-165.2-7.6 0-34.4 16.2-80.4 48.2l-48.2-62c50.6-44.4 100.4-88.8 149.4-133.2 67.4-58.2 118-88.8 151.8-92 79.6-7.6 128.8 46.8 147.2 163.4 19.8 125.8 33.6 204 41.4 234.6 23 104.4 48.2 156.6 75.8 156.6 21.4 0 53.6-33.8 96.6-101.6 42.8-67.6 65.8-119.2 69-154.6 6.2-58.4-16.8-87.8-69-87.8-24.6 0-49.8 5.6-75.8 16.8 50.4-164.8 146.4-244.8 288.4-240.2 105 2.8 154.6 71 148.6 204.4z"
          ],
          "attrs": [
            {}
          ],
          "isMulticolor": false,
          "isMulticolor2": false,
          "tags": [
            "vimeo",
            "brand",
            "social"
          ],
          "grid": 16
        },
        {
          "id": 6,
          "paths": [
            "M1013.8 307.2c0 0-10-70.6-40.8-101.6-39-40.8-82.6-41-102.6-43.4-143.2-10.4-358.2-10.4-358.2-10.4h-0.4c0 0-215 0-358.2 10.4-20 2.4-63.6 2.6-102.6 43.4-30.8 31-40.6 101.6-40.6 101.6s-10.2 82.8-10.2 165.8v77.6c0 82.8 10.2 165.8 10.2 165.8s10 70.6 40.6 101.6c39 40.8 90.2 39.4 113 43.8 82 7.8 348.2 10.2 348.2 10.2s215.2-0.4 358.4-10.6c20-2.4 63.6-2.6 102.6-43.4 30.8-31 40.8-101.6 40.8-101.6s10.2-82.8 10.2-165.8v-77.6c-0.2-82.8-10.4-165.8-10.4-165.8zM406.2 644.8v-287.8l276.6 144.4-276.6 143.4z"
          ],
          "attrs": [
            {}
          ],
          "isMulticolor": false,
          "isMulticolor2": false,
          "tags": [
            "youtube",
            "brand",
            "social"
          ],
          "grid": 16
        },
        {
          "id": 5,
          "paths": [
            "M1024 226.4c-37.6 16.8-78.2 28-120.6 33 43.4-26 76.6-67.2 92.4-116.2-40.6 24-85.6 41.6-133.4 51-38.4-40.8-93-66.2-153.4-66.2-116 0-210 94-210 210 0 16.4 1.8 32.4 5.4 47.8-174.6-8.8-329.4-92.4-433-219.6-18 31-28.4 67.2-28.4 105.6 0 72.8 37 137.2 93.4 174.8-34.4-1-66.8-10.6-95.2-26.2 0 0.8 0 1.8 0 2.6 0 101.8 72.4 186.8 168.6 206-17.6 4.8-36.2 7.4-55.4 7.4-13.6 0-26.6-1.4-39.6-3.8 26.8 83.4 104.4 144.2 196.2 146-72 56.4-162.4 90-261 90-17 0-33.6-1-50.2-3 93.2 59.8 203.6 94.4 322.2 94.4 386.4 0 597.8-320.2 597.8-597.8 0-9.2-0.2-18.2-0.6-27.2 41-29.4 76.6-66.4 104.8-108.6z"
          ],
          "attrs": [
            {}
          ],
          "isMulticolor": false,
          "isMulticolor2": false,
          "tags": [
            "twitter",
            "brand",
            "tweet",
            "social"
          ],
          "grid": 16
        },
        {
          "id": 4,
          "paths": [
            "M873 148.8c-95.8-96-223.2-148.8-359-148.8-279.6 0-507.2 227.6-507.2 507.4 0 89.4 23.4 176.8 67.8 253.6l-72 263 269-70.6c74.2 40.4 157.6 61.8 242.4 61.8h0.2c0 0 0 0 0 0 279.6 0 507.4-227.6 507.4-507.4 0-135.6-52.8-263-148.6-359zM514.2 929.6v0c-75.8 0-150-20.4-214.8-58.8l-15.4-9.2-159.6 41.8 42.6-155.6-10-16c-42.4-67-64.6-144.6-64.6-224.4 0-232.6 189.2-421.8 422-421.8 112.6 0 218.6 44 298.2 123.6 79.6 79.8 123.4 185.6 123.4 298.4-0.2 232.8-189.4 422-421.8 422zM745.4 613.6c-12.6-6.4-75-37-86.6-41.2s-20-6.4-28.6 6.4c-8.4 12.6-32.8 41.2-40.2 49.8-7.4 8.4-14.8 9.6-27.4 3.2s-53.6-19.8-102-63c-37.6-33.6-63.2-75.2-70.6-87.8s-0.8-19.6 5.6-25.8c5.8-5.6 12.6-14.8 19-22.2s8.4-12.6 12.6-21.2c4.2-8.4 2.2-15.8-1-22.2s-28.6-68.8-39-94.2c-10.2-24.8-20.8-21.4-28.6-21.8-7.4-0.4-15.8-0.4-24.2-0.4s-22.2 3.2-33.8 15.8c-11.6 12.6-44.4 43.4-44.4 105.8s45.4 122.6 51.8 131.2c6.4 8.4 89.4 136.6 216.6 191.4 30.2 13 53.8 20.8 72.2 26.8 30.4 9.6 58 8.2 79.8 5 24.4-3.6 75-30.6 85.6-60.2s10.6-55 7.4-60.2c-3-5.6-11.4-8.8-24.2-15.2z"
          ],
          "attrs": [
            {}
          ],
          "isMulticolor": false,
          "isMulticolor2": false,
          "tags": [
            "whatsapp",
            "brand",
            "social"
          ],
          "grid": 16
        },
        {
          "id": 3,
          "paths": [
            "M512 92.2c136.8 0 153 0.6 206.8 3 50 2.2 77 10.6 95 17.6 23.8 9.2 41 20.4 58.8 38.2 18 18 29 35 38.4 58.8 7 18 15.4 45.2 17.6 95 2.4 54 3 70.2 3 206.8s-0.6 153-3 206.8c-2.2 50-10.6 77-17.6 95-9.2 23.8-20.4 41-38.2 58.8-18 18-35 29-58.8 38.4-18 7-45.2 15.4-95 17.6-54 2.4-70.2 3-206.8 3s-153-0.6-206.8-3c-50-2.2-77-10.6-95-17.6-23.8-9.2-41-20.4-58.8-38.2-18-18-29-35-38.4-58.8-7-18-15.4-45.2-17.6-95-2.4-54-3-70.2-3-206.8s0.6-153 3-206.8c2.2-50 10.6-77 17.6-95 9.2-23.8 20.4-41 38.2-58.8 18-18 35-29 58.8-38.4 18-7 45.2-15.4 95-17.6 53.8-2.4 70-3 206.8-3zM512 0c-139 0-156.4 0.6-211 3-54.4 2.4-91.8 11.2-124.2 23.8-33.8 13.2-62.4 30.6-90.8 59.2-28.6 28.4-46 57-59.2 90.6-12.6 32.6-21.4 69.8-23.8 124.2-2.4 54.8-3 72.2-3 211.2s0.6 156.4 3 211c2.4 54.4 11.2 91.8 23.8 124.2 13.2 33.8 30.6 62.4 59.2 90.8 28.4 28.4 57 46 90.6 59 32.6 12.6 69.8 21.4 124.2 23.8 54.6 2.4 72 3 211 3s156.4-0.6 211-3c54.4-2.4 91.8-11.2 124.2-23.8 33.6-13 62.2-30.6 90.6-59s46-57 59-90.6c12.6-32.6 21.4-69.8 23.8-124.2 2.4-54.6 3-72 3-211s-0.6-156.4-3-211c-2.4-54.4-11.2-91.8-23.8-124.2-12.6-34-30-62.6-58.6-91-28.4-28.4-57-46-90.6-59-32.6-12.6-69.8-21.4-124.2-23.8-54.8-2.6-72.2-3.2-211.2-3.2v0z",
            "M512 249c-145.2 0-263 117.8-263 263s117.8 263 263 263 263-117.8 263-263c0-145.2-117.8-263-263-263zM512 682.6c-94.2 0-170.6-76.4-170.6-170.6s76.4-170.6 170.6-170.6c94.2 0 170.6 76.4 170.6 170.6s-76.4 170.6-170.6 170.6z",
            "M846.8 238.6c0 33.91-27.49 61.4-61.4 61.4s-61.4-27.49-61.4-61.4c0-33.91 27.49-61.4 61.4-61.4s61.4 27.49 61.4 61.4z"
          ],
          "attrs": [
            {},
            {},
            {}
          ],
          "isMulticolor": false,
          "isMulticolor2": false,
          "tags": [
            "instagram",
            "brand",
            "social"
          ],
          "grid": 16
        },
        {
          "id": 2,
          "paths": [
            "M608 192h160v-192h-160c-123.514 0-224 100.486-224 224v96h-128v192h128v512h192v-512h160l32-192h-192v-96c0-17.346 14.654-32 32-32z"
          ],
          "attrs": [
            {}
          ],
          "isMulticolor": false,
          "isMulticolor2": false,
          "tags": [
            "facebook",
            "brand",
            "social"
          ],
          "grid": 16
        },
        {
          "id": 1,
          "paths": [
            "M864 704c-45.16 0-85.92 18.738-115.012 48.83l-431.004-215.502c1.314-8.252 2.016-16.706 2.016-25.328s-0.702-17.076-2.016-25.326l431.004-215.502c29.092 30.090 69.852 48.828 115.012 48.828 88.366 0 160-71.634 160-160s-71.634-160-160-160-160 71.634-160 160c0 8.622 0.704 17.076 2.016 25.326l-431.004 215.504c-29.092-30.090-69.852-48.83-115.012-48.83-88.366 0-160 71.636-160 160 0 88.368 71.634 160 160 160 45.16 0 85.92-18.738 115.012-48.828l431.004 215.502c-1.312 8.25-2.016 16.704-2.016 25.326 0 88.368 71.634 160 160 160s160-71.632 160-160c0-88.364-71.634-160-160-160z"
          ],
          "attrs": [
            {}
          ],
          "isMulticolor": false,
          "isMulticolor2": false,
          "tags": [
            "share",
            "social"
          ],
          "grid": 16
        },
        {
          "id": 0,
          "paths": [
            "M976 0h-384c-26.4 0-63.274 15.274-81.942 33.942l-476.116 476.116c-18.668 18.668-18.668 49.214 0 67.882l412.118 412.118c18.668 18.668 49.214 18.668 67.882 0l476.118-476.118c18.666-18.666 33.94-55.54 33.94-81.94v-384c0-26.4-21.6-48-48-48zM736 384c-53.020 0-96-42.98-96-96s42.98-96 96-96 96 42.98 96 96-42.98 96-96 96z"
          ],
          "attrs": [
            {}
          ],
          "isMulticolor": false,
          "isMulticolor2": false,
          "tags": [
            "price-tag"
          ],
          "grid": 16
        }
      ],
      "invisible": false,
      "colorThemes": []
    }
  ],
  "uid": -1,
  "preferences": {
    "showGlyphs": true,
    "showCodes": true,
    "showQuickUse": true,
    "showQuickUse2": true,
    "showSVGs": true,
    "fontPref": {
      "prefix": "icon-",
      "metadata": {
        "fontFamily": "icomoon"
      },
      "metrics": {
        "emSize": 1024,
        "baseline": 6.25,
        "whitespace": 50
      },
      "embed": false
    },
    "imagePref": {
      "prefix": "icon-",
      "png": true,
      "useClassSelector": true,
      "color": 0,
      "bgColor": 16777215
    },
    "historySize": 50,
    "gridSize": 16
  }
}